-0.6 2.18162 -0.0908142 1.00002 6.91958e-07
-0.5964 2.1795 -0.0723596 1.0086 0.230967
-0.5928 2.17314 -0.0537644 1.01534 0.461507
-0.5892 2.16255 -0.0350647 1.01999 0.691102
-0.5856 2.14775 -0.0162966 1.02286 0.919509
-0.582 2.12877 0.00250294 1.02344 1.14586
-0.5784 2.10566 0.0212979 1.02218 1.37013
-0.5748 2.07844 0.0400515 1.01895 1.59175
-0.5712 2.04719 0.0587268 1.01372 1.81025
-0.5676 2.01195 0.0772883 1.0066 2.02541
-0.564 1.9728 0.0956988 0.997354 2.23627
-0.5604 1.9298 0.113924 0.986272 2.443
-0.5568 1.88306 0.131927 0.973217 2.64485
-0.5532 1.83265 0.149674 0.958368 2.84183
-0.5496 1.77868 0.167129 0.941615 3.03318
-0.546 1.72124 0.184259 0.92293 3.21831
-0.5424 1.66046 0.20103 0.902519 3.39739
-0.5388 1.59645 0.217411 0.88044 3.57021
-0.5352 1.52933 0.233368 0.85651 3.73554
-0.5316 1.45923 0.248872 0.830925 3.89361
-0.528 1.3863 0.263891 0.803818 4.04457
-0.5244 1.31067 0.278398 0.775063 4.18721
-0.5208 1.23249 0.292362 0.744821 4.32182
-0.5172 1.15191 0.305758 0.713185 4.44835
-0.5136 1.06909 0.318559 0.680091 4.56579
-0.51 0.984195 0.33074 0.645781 4.67511
-0.5064 0.897382 0.342277 0.610057 4.77417
-0.5028 0.808823 0.353149 0.573265 4.86485
-0.4992 0.718691 0.363334 0.535285 4.94546
-0.4956 0.62716 0.372812 0.496319 5.01695
-0.492 0.53441 0.381565 0.456407 5.07893
-0.4884 0.44062 0.389575 0.415516 5.13003
-0.4848 0.345973 0.396828 0.373854 5.17152
-0.4812 0.250652 0.403308 0.331523 5.20383
-0.4776 0.154844 0.409004 0.28846 5.22463
-0.474 0.0587349 0.413904 0.24489 5.23618
-0.4704 -0.0374896 0.417999 0.200818 5.23702
-0.4668 -0.133639 0.421281 0.156382 5.22843
-0.4632 -0.229531 0.423743 0.111618 5.2088
-0.4596 -0.324974 0.425381 0.0666468 5.17947
-0.456 -0.419787 0.426191 0.0215468 5.14002
-0.4524 -0.513782 0.426172 -0.0235977 5.09073
-0.4488 -0.606778 0.425324 -0.0686913 5.03115
-0.4452 -0.698593 0.423649 -0.113664 4.96242
-0.4416 -0.789049 0.42115 -0.158405 4.88351
-0.438 -0.87797 0.417831 -0.202831 4.795
-0.4344 -0.965184 0.413699 -0.246868 4.69736
-0.4308 -1.05052 0.408762 -0.290447 4.59092
-0.4272 -1.13381 0.403031 -0.333417 4.47487
-0.4236 -1.2149 0.396515 -0.375773 4.35063
-0.42 -1.29362 0.389228 -0.417379 4.21767
-0.4164 -1.36983 0.381183 -0.458181 4.07662
-0.4128 -1.44337 0.372397 -0.498089 3.9276
-0.4092 -1.5141 0.362887 -0.537042 3.77106
-0.4056 -1.58189 0.35267 -0.57492 3.60697
-0.402 -1.6466 0.341768 -0.611807 3.43658
-0.3984 -1.7081 0.3302 -0.647294 3.25836
-0.3948 -1.76629 0.317991 -0.681669 3.07457
-0.3912 -1.82103 0.305162 -0.71462 2.88435
-0.3876 -1.87224 0.29174 -0.746243 2.68879
-0.384 -1.9198 0.27775 -0.776403 2.48796
-0.3804 -1.96363 0.263221 -0.805056 2.28229
-0.3768 -2.00364 0.248179 -0.832135 2.07216
-0.3732 -2.03975 0.232653 -0.857711 1.85826
-0.3696 -2.07189 0.216676 -0.881391 1.64025
-0.366 -2.1 0.200277 -0.90353 1.4194
-0.3624 -2.12402 0.183488 -0.923811 1.19562
-0.3588 -2.14392 0.166343 -0.94236 0.969601
-0.3552 -2.15964 0.148873 -0.959038 0.741665
-0.3516 -2.17116 0.131115 -0.973912 0.512321
-0.348 -2.17846 0.1131 -0.986796 0.281932
-0.3444 -2.18152 0.0948668 -0.997831 0.0510191
-0.3408 -2.18033 0.0764483 -1.00687 -0.17999
-0.3372 -2.1749 0.0578811 -1.01398 -0.410644
-0.3336 -2.16525 0.0392012 -1.01917 -0.640528
-0.33 -2.15138 0.0204452 -1.02231 -0.86914
-0.3264 -2.13332 0.00164933 -1.02347 -1.09605
-0.3228 -2.11112 -0.0171499 -1.02264 -1.32083
-0.3192 -2.0848 -0.0359154 -1.01986 -1.5431
-0.3156 -2.05443 -0.0546115 -1.01504 -1.76227
-0.312 -2.02007 -0.0732009 -1.0083 -1.97814
-0.3084 -1.98177 -0.091648 -0.999534 -2.19
-0.3048 -1.93962 -0.109917 -0.988869 -2.39771
-0.3012 -1.8937 -0.127972 -0.976355 -2.60096
-0.2976 -1.84409 -0.145778 -0.961778 -2.7987
-0.294 -1.7909 -0.163301 -0.945459 -2.99137
-0.2904 -1.73422 -0.180506 -0.92718 -3.17785
-0.2868 -1.67416 -0.197359 -0.90718 -3.3584
-0.2832 -1.61085 -0.213829 -0.885413 -3.53242
-0.2796 -1.54441 -0.229882 -0.861903 -3.69949
-0.276 -1.47496 -0.245489 -0.83674 -3.85946
-0.2724 -1.40264 -0.260618 -0.80993 -4.01183
-0.2688 -1.3276 -0.27524 -0.781543 -4.1564
-0.2652 -1.24996 -0.289326 -0.751658 -4.29299
-0.2616 -1.1699 -0.30285 -0.720273 -4.42102
-0.258 -1.08757 -0.315784 -0.687511 -4.54059
-0.2544 -1.00311 -0.328104 -0.653413 -4.65134
-0.2508 -0.916708 -0.339786 -0.618047 -4.75306
-0.2472 -0.828521 -0.350807 -0.581461 -4.84541
-0.2436 -0.738721 -0.361145 -0.543821 -4.92898
-0.24 -0.647484 -0.370781 -0.504988 -5.00179
-0.2364 -0.554988 -0.379695 -0.465269 -5.06575
-0.2328 -0.461412 -0.387871 -0.424599 -5.11938
-0.2292 -0.366937 -0.395292 -0.383125 -5.1633
-0.2256 -0.27175 -0.401944 -0.340906 -5.19719
-0.222 -0.176034 -0.407814 -0.298024 -5.22098
-0.2184 -0.079975 -0.412891 -0.254545 -5.23431
-0.2148 0.0162402 -0.417165 -0.21059 -5.23781
-0.2112 0.112422 -0.420626 -0.166213 -5.2308
-0.2076 0.208387 -0.42327 -0.121541 -5.21464
-0.204 0.303945 -0.42509 -0.0765914 -5.18674
-0.2004 0.398914 -0.426084 -0.0315133 -5.14961
-0.1968 0.493106 -0.426248 0.0136271 -5.10231
-0.1932 0.586338 -0.425583 0.0587447 -5.04545
-0.1896 0.67843 -0.42409 0.10374 -4.97814
-0.186 0.769201 -0.421772 0.148542 -4.90162
-0.1824 0.858477 -0.418634 0.193045 -4.81528
-0.1788 0.946082 -0.414681 0.237186 -4.71989
-0.1752 1.03185 -0.409922 0.280856 -4.61508
-0.1716 1.11561 -0.404365 0.323981 -4.50135
-0.168 1.19719 -0.398021 0.366468 -4.37878
-0.1644 1.27645 -0.390903 0.408271 -4.24803
-0.1608 1.35323 -0.383025 0.449257 -4.10874
-0.1572 1.42737 -0.374401 0.489343 -3.96127
-0.1536 1.49874 -0.365049 0.528512 -3.8064
-0.15 1.56719 -0.354987 0.56663 -3.64398
-0.1464 1.6326 -0.344235 0.603669 -3.47464
-0.1428 1.69483 -0.332813 0.639515 -3.29845
-0.1392 1.75376 -0.320743 0.674131 -3.11593
-0.1356 1.80929 -0.30805 0.707428 -2.92734
-0.132 1.86129 -0.294757 0.739362 -2.73313
-0.1284 1.90968 -0.280891 0.769813 -2.5335
-0.1248 1.95436 -0.266479 0.798809 -2.32911
-0.1212 1.99523 -0.251549 0.826238 -2.12022
-0.1176 2.03224 -0.23613 0.852014 -1.90716
-0.114 2.06529 -0.220252 0.876183 -1.6906
-0.1104 2.09434 -0.203946 0.898723 -1.47097
-0.1068 2.11932 -0.187244 0.919261 -1.24825
-0.1032 2.14019 -0.170178 0.938218 -1.02351
-0.0996 2.15691 -0.152783 0.955167 -0.796782
-0.096 2.16946 -0.135092 0.970512 -0.569062
-0.0924 2.17781 -0.117139 0.983593 -0.340176
-0.0888 2.18196 -0.0989611 0.995055 -0.111234
-0.0852 2.1819 -0.0805932 1.00425 0.117304
-0.0816 2.17765 -0.0620714 1.01163 0.345403
-0.078 2.16923 -0.0434332 1.01695 0.571621
-0.0744 2.15665 -0.0247159 1.02033 0.796461
-0.0708 2.13998 -0.00595648 1.02149 1.01794
-0.0672 2.11927 0.0128065 1.02064 1.23589
-0.0636 2.09458 0.0315345 1.01773 1.45051
-0.06 2.066 0.0501888 1.0126 1.65845
-0.0564 2.03363 0.0687308 1.00542 1.86295
-0.0528 1.99759 0.0871201 0.996048 2.05933
-0.0492 1.95801 0.105317 0.984419 2.24701
-0.0456 1.91505 0.123282 0.97076 2.42778
-0.042 1.86888 0.140973 0.954651 2.59595
-0.0384 1.81971 0.158348 0.936452 2.75439
-0.0348 1.76777 0.175367 0.915803 2.89803
-0.0312 1.71331 0.191985 0.893044 3.02812
-0.0276 1.65664 0.208162 0.867596 3.13949
-0.024 1.59804 0.223852 0.840085 3.23573
-0.0204 1.53787 0.239015 0.810121 3.3108
-0.0168 1.4765 0.253607 0.777882 3.36397
-0.0132 1.41429 0.267589 0.743721 3.40202
-0.0096 1.35166 0.28092 0.707282 3.4137
-0.006 1.28898 0.293567 0.669084 3.40541
-0.0024 1.22667 0.305496 0.629281 3.3759
0.0012 1.16507 0.316681 0.58816 3.32692
0.0048 1.10453 0.327102 0.546155 3.25949
0.0084 1.04535 0.336742 0.50333 3.17904
0.012 0.987792 0.345595 0.460296 3.08512
0.0156 0.932049 0.353656 0.417304 2.98165
0.0192 0.87828 0.360931 0.374759 2.87076
0.0228 0.826589 0.36743 0.332988 2.75614
0.0264 0.777034 0.373166 0.291773 2.63857
0.03 0.729633 0.378159 0.25186 2.52145
0.0336 0.68437 0.382429 0.213165 2.40606
0.0372 0.641209 0.386 0.175803 2.29338
0.0408 0.600081 0.388896 0.140026 2.18583
0.0444 0.560909 0.391145 0.10512 2.07992
0.048 0.523613 0.39277 0.0719546 1.98068
0.0516 0.488098 0.393797 0.0400791 1.8862
0.0552 0.454265 0.394253 0.00958858 1.79675
0.0588 0.422027 0.39416 -0.0196071 1.71259
0.0624 0.391298 0.393542 -0.0475007 1.63353
0.066 0.361979 0.392422 -0.0742586 1.55858
0.0696 0.333994 0.390821 -0.0999143 1.48792
0.0732 0.307271 0.388759 -0.124213 1.42314
0.0768 0.281728 0.386257 -0.147857 1.35898
0.0804 0.257304 0.383333 -0.170186 1.30105
0.084 0.233938 0.380005 -0.191866 1.24394
0.0876 0.211576 0.37629 -0.212376 1.19104
0.0912 0.19016 0.372207 -0.232049 1.14063
0.0948 0.16965 0.367769 -0.250901 1.09243
0.0984 0.149998 0.362993 -0.268863 1.047
0.102 0.131166 0.357895 -0.286016 1.00342
0.1056 0.11312 0.352488 -0.302384 0.961301
0.1092 0.0958289 0.346788 -0.317964 0.921599
0.1128 0.079261 0.340809 -0.332817 0.883188
0.1164 0.06339 0.334564 -0.346885 0.845603
0.12 0.0481915 0.328066 -0.360237 0.809393
0.1236 0.0336433 0.321331 -0.372883 0.774475
0.1272 0.019725 0.31437 -0.384808 0.74119
0.1308 0.00641793 0.307196 -0.39603 0.708427
0.1344 -0.00629532 0.299823 -0.406511 0.676306
0.138 -0.0184306 0.292263 -0.416311 0.645133
0.1416 -0.0300026 0.28453 -0.425436 0.614813
0.1452 -0.041025 0.276634 -0.433892 0.585202
0.1488 -0.0515105 0.26859 -0.441667 0.556345
0.1524 -0.0614709 0.260409 -0.448817 0.528066
0.156 -0.0709176 0.252104 -0.455302 0.500747
0.1596 -0.0798609 0.243686 -0.461088 0.47324
0.1632 -0.0883111 0.235167 -0.466214 0.446964
0.1668 -0.0962778 0.226561 -0.470688 0.420859
0.1704 -0.10377 0.217878 -0.474479 0.395073
0.174 -0.110797 0.20913 -0.477676 0.369978
0.1776 -0.117367 0.200329 -0.480255 0.345319
0.1812 -0.123489 0.191486 -0.482218 0.321177
0.1848 -0.12917 0.182614 -0.483553 0.297423
0.1884 -0.134419 0.173722 -0.484282 0.274121
0.192 -0.139245 0.164822 -0.484418 0.251254
0.1956 -0.143653 0.155925 -0.48395 0.228812
0.1992 -0.147654 0.147042 -0.482907 0.206816
0.2028 -0.151254 0.138184 -0.481277 0.185209
0.2064 -0.154462 0.129361 -0.47909 0.16407
0.21 -0.157285 0.120583 -0.476342 0.143342
0.2136 -0.159731 0.11186 -0.473048 0.123046
0.2172 -0.161808 0.103203 -0.469227 0.103207
0.2208 -0.163525 0.0946213 -0.464896 0.0838271
0.2244 -0.164889 0.086124 -0.460009 0.0648318
0.228 -0.165909 0.0777207 -0.454644 0.0462807
0.2316 -0.166593 0.0694204 -0.44885 0.028313
0.2352 -0.16695 0.0612318 -0.442579 0.0107798
0.2388 -0.166988 0.0531636 -0.435743 -0.00647385
0.2424 -0.166715 0.0452241 -0.428519 -0.0231679
0.246 -0.166141 0.0374213 -0.421088 -0.0390685
0.2496 -0.165275 0.0297632 -0.412808 -0.0550228
0.2532 -0.164125 0.0222569 -0.404444 -0.0700085
0.2568 -0.162701 0.0149099 -0.395489 -0.0847807
0.2604 -0.161011 0.00772895 -0.386185 -0.0990314
0.264 -0.159065 0.000720751 -0.376621 -0.112682
0.2676 -0.156872 -0.00610831 -0.366704 -0.125852
0.2712 -0.154443 -0.0127522 -0.356481 -0.138514
0.2748 -0.151786 -0.0192055 -0.345965 -0.150672
0.2784 -0.148912 -0.0254637 -0.335459 -0.162062
0.282 -0.145828 -0.0315189 -0.324042 -0.17338
0.2856 -0.142547 -0.0373688 -0.312873 -0.183745
0.2892 -0.139077 -0.0430083 -0.301179 -0.193791
0.2928 -0.135428 -0.0484334 -0.289374 -0.203252
0.2964 -0.131611 -0.0536415 -0.277615 -0.2121
0.3 -0.127635 -0.0586289 -0.265512 -0.220465
0.3036 -0.12351 -0.0633883 -0.252921 -0.228493
0.3072 -0.119246 -0.0679226 -0.240953 -0.235573
0.3108 -0.114854 -0.0722278 -0.227984 -0.242415
0.3144 -0.110342 -0.0763017 -0.215405 -0.248579
0.318 -0.105722 -0.0801423 -0.202759 -0.254232
0.3216 -0.101002 -0.0837483 -0.190329 -0.259338
0.3252 -0.0961938 -0.0871185 -0.177004 -0.264054
0.3288 -0.0913061 -0.090254 -0.164424 -0.267997
0.3324 -0.0863485 -0.09315 -0.151144 -0.271525
0.336 -0.081331 -0.0958107 -0.138564 -0.274525
0.3396 -0.0762633 -0.0982365 -0.125492 -0.277009
0.3432 -0.0711552 -0.100425 -0.11271 -0.279054
0.3468 -0.0660155 -0.102382 -0.100199 -0.280466
0.3504 -0.0608539 -0.104103 -0.0873941 -0.281342
0.354 -0.0556791 -0.105595 -0.0750687 -0.281851
0.3576 -0.0505002 -0.106857 -0.062389 -0.281784
0.3612 -0.0453273 -0.107891 -0.0501128 -0.281342
0.3648 -0.0401679 -0.1087 -0.0380128 -0.28029
0.3684 -0.0350301 -0.109289 -0.0261206 -0.278869
0.372 -0.029923 -0.10966 -0.0142329 -0.276986
0.3756 -0.024856 -0.109813 -0.00252799 -0.274672
0.3792 -0.0198348 -0.109757 0.00861652 -0.271922
0.3828 -0.0148688 -0.109492 0.0200139 -0.268604
0.3864 -0.0099655 -0.109024 0.0307872 -0.26513
0.39 -0.00513154 -0.108357 0.041671 -0.261156
0.3936 -0.000373351 -0.107498 0.0519318 -0.256795
0.3972 0.00429988 -0.106448 0.0622611 -0.25189
0.4008 0.00888209 -0.105212 0.0720997 -0.246828
0.4044 0.0133674 -0.103799 0.0817395 -0.241443
0.408 0.0177498 -0.102213 0.0908731 -0.235656
0.4116 0.0220241 -0.10046 0.0998165 -0.229596
0.4152 0.0261839 -0.0985451 0.108352 -0.223366
0.4188 0.0302223 -0.0964745 0.116777 -0.216519
0.4224 0.0341351 -0.0942539 0.124791 -0.209437
0.426 0.037918 -0.0918904 0.132342 -0.202331
0.4296 0.0415664 -0.0893913 0.139485 -0.195107
0.4332 0.0450768 -0.086762 0.146493 -0.187152
0.4368 0.0484433 -0.0840104 0.152987 -0.179261
0.4404 0.0516631 -0.0811421 0.159251 -0.171241
0.444 0.0547346 -0.0781656 0.164801 -0.163124
0.4476 0.0576518 -0.0750859 0.170231 -0.154538
0.4512 0.0604121 -0.071911 0.17532 -0.145948
0.4548 0.0630131 -0.0686485 0.179791 -0.13735
0.4584 0.065456 -0.0653054 0.183971 -0.128627
0.462 0.0677369 -0.0618888 0.187861 -0.11968
0.4656 0.0698514 -0.0584061 0.191277 -0.110599
0.4692 0.0717999 -0.0548639 0.194236 -0.101507
0.4728 0.0735819 -0.0512695 0.196918 -0.0926188
0.4764 0.0751975 -0.0476315 0.199101 -0.0833349
0.48 0.0766448 -0.0439562 0.200912 -0.0742007
0.4836 0.0779243 -0.0402502 0.202433 -0.0650605
0.4872 0.0790367 -0.0365217 0.203488 -0.0560906
0.4908 0.0799809 -0.0327761 0.204101 -0.0468521
0.4944 0.0807585 -0.0290228 0.204405 -0.0378012
0.498 0.0813701 -0.0252675 0.204398 -0.0287902
0.5016 0.0818173 -0.0215166 0.203872 -0.0198938
0.5052 0.0821015 -0.0177769 0.203144 -0.0110683
0.5088 0.0822255 -0.0140557 0.201977 -0.0023927
0.5124 0.0821887 -0.0103594 0.200353 0.00631759
0.516 0.0819944 -0.00669384 0.198626 0.0145733
0.5196 0.0816465 -0.00306612 0.196304 0.0231335
0.5232 0.0811466 0.000517798 0.19376 0.0312878
0.5268 0.0804974 0.00405284 0.191013 0.0393738
0.5304 0.0797038 0.00753261 0.187857 0.0470275
0.534 0.0787668 0.0109526 0.184352 0.0547349
0.5376 0.0776917 0.0143049 0.180594 0.0622435
0.5412 0.0764816 0.0175855 0.176564 0.0694476
0.5448 0.07514 0.0207903 0.172267 0.0764436
0.5484 0.0736718 0.0239132 0.167738 0.0833629
0.552 0.0720811 0.0269493 0.162808 0.0898297
0.5556 0.0703722 0.0298957 0.157842 0.0961242
0.5592 0.0685515 0.0327478 0.15263 0.102125
0.5628 0.0666209 0.0354999 0.146983 0.107937
0.5664 0.0645862 0.0381489 0.141351 0.113526
0.57 0.0624544 0.0406926 0.135589 0.118561
0.5736 0.0602277 0.0431257 0.129354 0.123606
0.5772 0.0579126 0.0454442 0.123388 0.12818
0.5808 0.0555159 0.0476499 0.116858 0.132586
0.5844 0.0530411 0.0497369 0.110313 0.136736
0.588 0.0504944 0.0517003 0.103534 0.14051
0.5916 0.0478809 0.0535423 0.0968849 0.143904
0.5952 0.0452073 0.0552599 0.0900898 0.147164
0.5988 0.0424787 0.0568499 0.0830893 0.149885
0.6024 0.0397001 0.0583116 0.0761239 0.152423
0.606 0.0368785 0.0596429 0.0689748 0.154674
0.6096 0.0340188 0.0608461 0.0619877 0.15654
0.6132 0.0311269 0.0619191 0.0546648 0.158195
0.6168 0.0282091 0.0628579 0.0475721 0.159422
0.6204 0.0252699 0.0636656 0.0405472 0.160421
0.624 0.0223162 0.0643425 0.0332083 0.161082
0.6276 0.0193526 0.0648875 0.0260851 0.161401
0.6312 0.0163855 0.0653013 0.018968 0.161601
0.6348 0.0134209 0.0655845 0.011888 0.161198
0.6384 0.0104628 0.0657383 0.0048245 0.160659
0.642 0.00751856 0.0657637 -0.00198124 0.159867
0.6456 0.00459085 0.0656622 -0.00886491 0.158717
0.6492 0.00168798 0.0654361 -0.0157206 0.157294
0.6528 -0.00118639 0.0650862 -0.0223686 0.155575
0.6564 -0.00402817 0.0646147 -0.0289446 0.153721
0.66 -0.00683124 0.0640254 -0.0352757 0.151454
0.6636 -0.00959132 0.0633179 -0.0416801 0.14893
0.6672 -0.0123022 0.0624955 -0.0477151 0.146244
0.6708 -0.0149614 0.0615612 -0.053776 0.143184
0.6744 -0.0175628 0.0605189 -0.0596699 0.140021
0.678 -0.020103 0.0593706 -0.0653052 0.13649
0.6816 -0.0225781 0.05812 -0.0708052 0.132879
0.6852 -0.0249845 0.056772 -0.0759508 0.129077
0.6888 -0.0273177 0.0553274 -0.0810969 0.124927
0.6924 -0.0295729 0.0537909 -0.0861213 0.120622
0.696 -0.0317488 0.0521667 -0.0906938 0.116181
0.6996 -0.0338415 0.0504586 -0.0952627 0.111597
0.7032 -0.0358473 0.0486703 -0.099387 0.106745
0.7068 -0.0377636 0.0468065 -0.103379 0.101915
0.7104 -0.039588 0.0448717 -0.107192 0.0967318
0.714 -0.041318 0.042869 -0.110747 0.0915197
0.7176 -0.0429506 0.0408045 -0.113979 0.0862459
0.7212 -0.0444846 0.0386809 -0.117031 0.0807583
0.7248 -0.0459173 0.0365046 -0.119839 0.0752989
0.7284 -0.0472478 0.0342785 -0.122362 0.0695851
0.732 -0.0484739 0.0320086 -0.124729 0.0638946
0.7356 -0.0495948 0.0296988 -0.126676 0.0581195
0.7392 -0.0506091 0.027354 -0.128467 0.0523826
0.7428 -0.051516 0.0249794 -0.129985 0.046413
0.7464 -0.0523149 0.0225788 -0.13126 0.0405341
0.75 -0.0530053 0.0201584 -0.132229 0.0346142
0.7536 -0.0535868 0.0177212 -0.132958 0.0286902
0.7572 -0.0540594 0.0152737 -0.133468 0.0227635
0.7608 -0.0544233 0.012819 -0.13365 0.0168566
0.7644 -0.0546788 0.0103632 -0.133683 0.0109598
0.768 -0.0548265 0.0079098 -0.133331 0.00511532
0.7716 -0.0548669 0.00546419 -0.13288 -0.000577784
0.7752 -0.0548012 0.00303057 -0.132024 -0.00644209
0.7788 -0.0546301 0.00061327 -0.131063 -0.0120465
0.7824 -0.0543554 -0.00178263 -0.129751 -0.0177663
0.786 -0.0539781 -0.00415386 -0.128284 -0.0232889
0.7896 -0.0535003 -0.00649484 -0.126551 -0.0287226
0.7932 -0.0529232 -0.00880292 -0.124599 -0.03407
0.7968 -0.0522495 -0.0110725 -0.12248 -0.039207
0.8004 -0.0514806 -0.0133011 -0.120067 -0.0443382
0.804 -0.0506195 -0.0154835 -0.117518 -0.0493815
0.8076 -0.049668 -0.0176173 -0.114694 -0.054167
0.8112 -0.0486293 -0.0196977 -0.111785 -0.0589066
0.8148 -0.0475056 -0.0217221 -0.108563 -0.0633918
0.8184 -0.0463002 -0.0236868 -0.10538 -0.0676908
0.822 -0.0450158 -0.0255885 -0.101722 -0.0719786
0.8256 -0.0436556 -0.0274245 -0.0981148 -0.0760744
0.8292 -0.0422231 -0.0291914 -0.0942361 -0.0798714
0.8328 -0.0407209 -0.030887 -0.0903002 -0.0835906
0.8364 -0.0391535 -0.0325081 -0.0861689 -0.0870363
0.84 -0.0375232 -0.0340529 -0.0819586 -0.0903588
0.8436 -0.0358351 -0.0355185 -0.0775863 -0.0934227
0.8472 -0.0340912 -0.0369034 -0.0731373 -0.0963301
0.8508 -0.032297 -0.038205 -0.0685583 -0.0989915
0.8544 -0.0304546 -0.0394223 -0.0639036 -0.101462
0.858 -0.0285696 -0.0405529 -0.0591728 -0.103739
0.8616 -0.0266442 -0.041596 -0.0543577 -0.105766
0.8652 -0.0246842 -0.0425499 -0.0494863 -0.107612
0.8688 -0.0226918 -0.0434139 -0.0445552 -0.109196
0.8724 -0.0206728 -0.0441868 -0.0395774 -0.110587
0.876 -0.0186296 -0.0448681 -0.0345523 -0.111735
0.8796 -0.0165677 -0.045457 -0.0296301 -0.112687
0.8832 -0.0144899 -0.0459534 -0.0245231 -0.113388
0.8868 -0.0124015 -0.046357 -0.0194193 -0.113925
0.8904 -0.0103055 -0.0466677 -0.0143894 -0.114162
0.894 -0.00820676 -0.0468857 -0.00934819 -0.114306
0.8976 -0.00610856 -0.0470114 -0.00432567 -0.114075
0.9012 -0.0040156 -0.0470452 0.000545252 -0.113748
0.9048 -0.00193114 -0.0469878 0.00556054 -0.113106
0.9084 0.000140312 -0.0468401 0.0105101 -0.112396
0.912 0.00219548 -0.0466029 0.0153245 -0.111311
0.9156 0.00422999 -0.0462776 0.0199976 -0.110164
0.9192 0.00624081 -0.0458653 0.0247416 -0.108693
0.9228 0.00822355 -0.0453677 0.0294219 -0.107154
0.9264 0.0101755 -0.0447859 0.0339114 -0.105298
0.93 0.0120922 -0.0441224 0.0382597 -0.103364
0.9336 0.0139713 -0.0433783 0.0425934 -0.101155
0.9372 0.0158084 -0.0425563 0.046866 -0.0988435
0.9408 0.0176016 -0.041658 0.0509041 -0.0963081
0.9444 0.0193465 -0.0406864 0.0548686 -0.0936486
0.948 0.0210414 -0.0396429 0.0586854 -0.0908024
0.9516 0.0226822 -0.0385313 0.0623039 -0.0878322
0.9552 0.0242675 -0.0373528 0.0658279 -0.0847075
0.9588 0.0257933 -0.0361117 0.0692602 -0.0814142
0.9624 0.0272585 -0.0348091 0.0724939 -0.0780327
0.966 0.0286595 -0.0334498 0.0754855 -0.0744995
0.9696 0.0299953 -0.0320349 0.0783876 -0.0709022
0.9732 0.0312627 -0.0305695 0.0811059 -0.0671055
0.9768 0.0324608 -0.0290548 0.0836589 -0.0633264
0.9804 0.0335869 -0.0274958 0.086014 -0.0593153
0.984 0.0346402 -0.0258942 0.0882214 -0.0553836
0.9876 0.0356186 -0.0242549 0.0901973 -0.0511904
0.9912 0.0365212 -0.0225799 0.092051 -0.0471356
0.9948 0.0373465 -0.0208739 0.0936357 -0.0427957
0.9984 0.0380937 -0.0191394 0.0951096 -0.038601
1.002 0.0387618 -0.0173803 0.0963124 -0.0342049
1.0056 0.0393501 -0.0156004 0.0974158 -0.0298344
1.0092 0.0398582 -0.0138026 0.0982217 -0.025456
1.0128 0.0402856 -0.0119913 0.0989477 -0.0210617
1.0164 0.040632 -0.0101689 0.099384 -0.01664
1.02 0.0408973 -0.00834057 0.0996419 -0.0122706
1.0236 0.0410816 -0.00650788 0.0997341 -0.00785984
1.0272 0.0411853 -0.00467649 0.0996219 -0.003462
1.0308 0.0412084 -0.00284769 0.0993413 0.000867041
1.0344 0.0411517 -0.00102716 0.098844 0.00525455
1.038 0.0410157 0.000783829 0.0982489 0.00955195
1.0416 0.0408014 0.00257982 0.0973044 0.0137769
1.0452 0.0405094 0.00435939 0.0963336 0.0179899
1.0488 0.0401413 0.00611758 0.0950655 0.0220875
1.0524 0.0396978 0.0078525 0.0937761 0.0260879
1.056 0.0391806 0.00956011 0.0921325 0.0301136
1.0596 0.0385911 0.0112377 0.0904526 0.0340469
1.0632 0.0379308 0.0128824 0.0885302 0.0378125
1.0668 0.0372017 0.0144907 0.0865489 0.0415509
1.0704 0.0364051 0.0160608 0.0843262 0.0451421
1.074 0.035544 0.0175886 0.0819978 0.0485818
1.0776 0.034619 0.019073 0.0795356 0.0519616
1.0812 0.033634 0.0205098 0.0768912 0.0552236
1.0848 0.0325897 0.0218982 0.07422 0.0583347
1.0884 0.0314898 0.0232343 0.0712734 0.0613391
1.092 0.0303358 0.0245171 0.0683928 0.0641874
1.0956 0.0291307 0.0257439 0.0652015 0.0668944
1.0992 0.0278774 0.0269126 0.0620267 0.0695361
1.1028 0.0265776 0.0280222 0.0587133 0.0719263
1.1064 0.0252357 0.0290697 0.0553365 0.0741419
1.11 0.0238526 0.0300548 0.0519099 0.0762692
1.1136 0.0224333 0.0309748 0.0482934 0.0782062
1.1172 0.0209789 0.0318293 0.0447799 0.0800252
1.1208 0.0194935 0.0326166 0.0409986 0.0816112
1.1244 0.0179802 0.0333356 0.0373021 0.0830882
1.128 0.0164408 0.0339857 0.0335143 0.0843524
1.1316 0.0148805 0.0345657 0.0296446 0.0854925
1.1352 0.0132999 0.0350753 0.0258129 0.0865319
1.1388 0.0117047 0.0355135 0.0219091 0.0871824
1.1424 0.0100965 0.0358803 0.0180674 0.0878182
1.146 0.00847816 0.0361753 0.0141131 0.0882208
1.1496 0.00685481 0.0363984 0.0101954 0.08848
1.1532 0.00522687 0.0365496 0.00633014 0.088594
1.1568 0.00359994 0.0366292 0.00238903 0.088469
1.1604 0.00197615 0.0366374 -0.00151201 0.0883147
1.164 0.000357424 0.0365744 -0.00534079 0.087825
1.1676 -0.00125053 0.0364412 -0.00915228 0.0872184
1.1712 -0.00284733 0.0362381 -0.0129522 0.0865661
1.1748 -0.00442849 0.035966 -0.0166545 0.0855437
1.1784 -0.00599061 0.0356261 -0.0203482 0.0845115
1.182 -0.00753296 0.0352189 -0.0239684 0.0832963
1.1856 -0.00905017 0.0347467 -0.0274562 0.0818698
1.1892 -0.0105412 0.0342098 -0.03087 0.0804367
1.1928 -0.0120049 0.0336089 -0.0342827 0.0787347
1.1964 -0.0134347 0.032948 -0.0376208 0.0768916
