0.05,7.0996
0.1,14.333
0.15,21.481
0.2,29.255
0.25,36.506
0.3,41.001
0.35,54.469
0.4,60.335
0.45,80.946
0.5,66.261
0.55,100.57
0.6,143.41
0.65,188.29
0.7,241.13
0.75,159.14
0.8,1244
0.85,988.49
0.9,261.78
0.95,147.13
1,155.96
1.05,113.09
1.1,81.25
1.15,38.217
1.2,52.708
1.25,48.082
1.3,40.274
1.35,24.414
1.4,24.352
1.45,21.334
1.5,16.502
1.55,11.238
1.6,6.7017
1.65,5.3675
1.7,8.3527
1.75,10.502
1.8,13.189
1.85,18.356
1.9,22.204
1.95,26.385
2,29.51
2.05,38.239
2.1,46.03
2.15,55.188
2.2,65.357
2.25,85.141
2.3,113.65
2.35,159.63
2.4,246.57
2.45,382.68
2.5,302.65
2.55,185.5
2.6,125.9
2.65,93.278
2.7,73.078
2.75,58.92
2.8,48.184
2.85,39.79
2.9,33.084
2.95,27.473
3,22.578
3.05,18.233
3.1,14.397
3.15,11.041
3.2,8.2564
3.25,6.4618
3.3,6.3828
3.35,8.0588
3.4,10.768
3.45,14.05
3.5,17.756
3.55,21.886
3.6,26.52
3.65,31.797
3.7,37.916
3.75,45.163
3.8,53.949
3.85,64.841
3.9,78.573
3.95,95.796
4,115.97
4.05,134.39
4.1,140.7
4.15,129.9
4.2,110.41
4.25,91.243
4.3,75.394
4.35,62.845
4.4,52.888
4.45,44.858
4.5,38.255
4.55,32.733
4.6,28.056
4.65,24.075
4.7,20.708
4.75,17.939
4.8,15.81
4.85,14.415
4.9,13.859
4.95,14.187
5,15.341
