%!PS-Adobe-3.0 EPSF-3.0
%%Creator: (MATLAB, The Mathworks, Inc. Version 9.1.0.441655 \(R2016b\). Operating System: Mac OS X)
%%Title: /Users/dfabre/COURS/ONDES_M1/TDs_Ondes_2018/Figures/ImpedanceEntreePBCORDE.eps
%%CreationDate: 2018-02-08T10:59:28
%%Pages: (atend)
%%BoundingBox: 0 0 753 428
%%LanguageLevel: 3
%%EndComments
%%BeginProlog
%%BeginResource: procset (Apache XML Graphics Std ProcSet) 1.2 0
%%Version: 1.2 0
%%Copyright: (Copyright 2001-2003,2010 The Apache Software Foundation. License terms: http://www.apache.org/licenses/LICENSE-2.0)
/bd{bind def}bind def
/ld{load def}bd
/GR/grestore ld
/M/moveto ld
/LJ/setlinejoin ld
/C/curveto ld
/f/fill ld
/LW/setlinewidth ld
/GC/setgray ld
/t/show ld
/N/newpath ld
/CT/concat ld
/cp/closepath ld
/S/stroke ld
/L/lineto ld
/CC/setcmykcolor ld
/A/ashow ld
/GS/gsave ld
/RC/setrgbcolor ld
/RM/rmoveto ld
/ML/setmiterlimit ld
/re {4 2 roll M
1 index 0 rlineto
0 exch rlineto
neg 0 rlineto
cp } bd
/_ctm matrix def
/_tm matrix def
/BT { _ctm currentmatrix pop matrix _tm copy pop 0 0 moveto } bd
/ET { _ctm setmatrix } bd
/iTm { _ctm setmatrix _tm concat } bd
/Tm { _tm astore pop iTm 0 0 moveto } bd
/ux 0.0 def
/uy 0.0 def
/F {
  /Tp exch def
  /Tf exch def
  Tf findfont Tp scalefont setfont
  /cf Tf def  /cs Tp def
} bd
/ULS {currentpoint /uy exch def /ux exch def} bd
/ULE {
  /Tcx currentpoint pop def
  gsave
  newpath
  cf findfont cs scalefont dup
  /FontMatrix get 0 get /Ts exch def /FontInfo get dup
  /UnderlinePosition get Ts mul /To exch def
  /UnderlineThickness get Ts mul /Tt exch def
  ux uy To add moveto  Tcx uy To add lineto
  Tt setlinewidth stroke
  grestore
} bd
/OLE {
  /Tcx currentpoint pop def
  gsave
  newpath
  cf findfont cs scalefont dup
  /FontMatrix get 0 get /Ts exch def /FontInfo get dup
  /UnderlinePosition get Ts mul /To exch def
  /UnderlineThickness get Ts mul /Tt exch def
  ux uy To add cs add moveto Tcx uy To add cs add lineto
  Tt setlinewidth stroke
  grestore
} bd
/SOE {
  /Tcx currentpoint pop def
  gsave
  newpath
  cf findfont cs scalefont dup
  /FontMatrix get 0 get /Ts exch def /FontInfo get dup
  /UnderlinePosition get Ts mul /To exch def
  /UnderlineThickness get Ts mul /Tt exch def
  ux uy To add cs 10 mul 26 idiv add moveto Tcx uy To add cs 10 mul 26 idiv add lineto
  Tt setlinewidth stroke
  grestore
} bd
/QT {
/Y22 exch store
/X22 exch store
/Y21 exch store
/X21 exch store
currentpoint
/Y21 load 2 mul add 3 div exch
/X21 load 2 mul add 3 div exch
/X21 load 2 mul /X22 load add 3 div
/Y21 load 2 mul /Y22 load add 3 div
/X22 load /Y22 load curveto
} bd
/SSPD {
dup length /d exch dict def
{
/v exch def
/k exch def
currentpagedevice k known {
/cpdv currentpagedevice k get def
v cpdv ne {
/upd false def
/nullv v type /nulltype eq def
/nullcpdv cpdv type /nulltype eq def
nullv nullcpdv or
{
/upd true def
} {
/sametype v type cpdv type eq def
sametype {
v type /arraytype eq {
/vlen v length def
/cpdvlen cpdv length def
vlen cpdvlen eq {
0 1 vlen 1 sub {
/i exch def
/obj v i get def
/cpdobj cpdv i get def
obj cpdobj ne {
/upd true def
exit
} if
} for
} {
/upd true def
} ifelse
} {
v type /dicttype eq {
v {
/dv exch def
/dk exch def
/cpddv cpdv dk get def
dv cpddv ne {
/upd true def
exit
} if
} forall
} {
/upd true def
} ifelse
} ifelse
} if
} ifelse
upd true eq {
d k v put
} if
} if
} if
} forall
d length 0 gt {
d setpagedevice
} if
} bd
/RE { % /NewFontName [NewEncodingArray] /FontName RE -
  findfont dup length dict begin
  {
    1 index /FID ne
    {def} {pop pop} ifelse
  } forall
  /Encoding exch def
  /FontName 1 index def
  currentdict definefont pop
  end
} bind def
%%EndResource
%%BeginResource: procset (Apache XML Graphics EPS ProcSet) 1.0 0
%%Version: 1.0 0
%%Copyright: (Copyright 2002-2003 The Apache Software Foundation. License terms: http://www.apache.org/licenses/LICENSE-2.0)
/BeginEPSF { %def
/b4_Inc_state save def         % Save state for cleanup
/dict_count countdictstack def % Count objects on dict stack
/op_count count 1 sub def      % Count objects on operand stack
userdict begin                 % Push userdict on dict stack
/showpage { } def              % Redefine showpage, { } = null proc
0 setgray 0 setlinecap         % Prepare graphics state
1 setlinewidth 0 setlinejoin
10 setmiterlimit [ ] 0 setdash newpath
/languagelevel where           % If level not equal to 1 then
{pop languagelevel             % set strokeadjust and
1 ne                           % overprint to their defaults.
{false setstrokeadjust false setoverprint
} if
} if
} bd
/EndEPSF { %def
count op_count sub {pop} repeat            % Clean up stacks
countdictstack dict_count sub {end} repeat
b4_Inc_state restore
} bd
%%EndResource
%FOPBeginFontDict
%%IncludeResource: font Courier-Bold
%%IncludeResource: font Helvetica
%%IncludeResource: font Courier-BoldOblique
%%IncludeResource: font Courier-Oblique
%%IncludeResource: font Times-Roman
%%IncludeResource: font Helvetica-BoldOblique
%%IncludeResource: font Helvetica-Bold
%%IncludeResource: font Helvetica-Oblique
%%IncludeResource: font Times-BoldItalic
%%IncludeResource: font Courier
%%IncludeResource: font Times-Italic
%%IncludeResource: font Times-Bold
%%IncludeResource: font Symbol
%%IncludeResource: font ZapfDingbats
%FOPEndFontDict
%%BeginResource: encoding WinAnsiEncoding
/WinAnsiEncoding [
/.notdef /.notdef /.notdef /.notdef /.notdef
/.notdef /.notdef /.notdef /.notdef /.notdef
/.notdef /.notdef /.notdef /.notdef /.notdef
/.notdef /.notdef /.notdef /.notdef /.notdef
/.notdef /.notdef /.notdef /.notdef /.notdef
/.notdef /.notdef /.notdef /.notdef /.notdef
/.notdef /.notdef /space /exclam /quotedbl
/numbersign /dollar /percent /ampersand /quotesingle
/parenleft /parenright /asterisk /plus /comma
/hyphen /period /slash /zero /one
/two /three /four /five /six
/seven /eight /nine /colon /semicolon
/less /equal /greater /question /at
/A /B /C /D /E
/F /G /H /I /J
/K /L /M /N /O
/P /Q /R /S /T
/U /V /W /X /Y
/Z /bracketleft /backslash /bracketright /asciicircum
/underscore /quoteleft /a /b /c
/d /e /f /g /h
/i /j /k /l /m
/n /o /p /q /r
/s /t /u /v /w
/x /y /z /braceleft /bar
/braceright /asciitilde /bullet /Euro /bullet
/quotesinglbase /florin /quotedblbase /ellipsis /dagger
/daggerdbl /circumflex /perthousand /Scaron /guilsinglleft
/OE /bullet /Zcaron /bullet /bullet
/quoteleft /quoteright /quotedblleft /quotedblright /bullet
/endash /emdash /asciitilde /trademark /scaron
/guilsinglright /oe /bullet /zcaron /Ydieresis
/space /exclamdown /cent /sterling /currency
/yen /brokenbar /section /dieresis /copyright
/ordfeminine /guillemotleft /logicalnot /sfthyphen /registered
/macron /degree /plusminus /twosuperior /threesuperior
/acute /mu /paragraph /middot /cedilla
/onesuperior /ordmasculine /guillemotright /onequarter /onehalf
/threequarters /questiondown /Agrave /Aacute /Acircumflex
/Atilde /Adieresis /Aring /AE /Ccedilla
/Egrave /Eacute /Ecircumflex /Edieresis /Igrave
/Iacute /Icircumflex /Idieresis /Eth /Ntilde
/Ograve /Oacute /Ocircumflex /Otilde /Odieresis
/multiply /Oslash /Ugrave /Uacute /Ucircumflex
/Udieresis /Yacute /Thorn /germandbls /agrave
/aacute /acircumflex /atilde /adieresis /aring
/ae /ccedilla /egrave /eacute /ecircumflex
/edieresis /igrave /iacute /icircumflex /idieresis
/eth /ntilde /ograve /oacute /ocircumflex
/otilde /odieresis /divide /oslash /ugrave
/uacute /ucircumflex /udieresis /yacute /thorn
/ydieresis
] def
%%EndResource
%FOPBeginFontReencode
/Courier-Bold findfont
dup length dict begin
  {1 index /FID ne {def} {pop pop} ifelse} forall
  /Encoding WinAnsiEncoding def
  currentdict
end
/Courier-Bold exch definefont pop
/Helvetica findfont
dup length dict begin
  {1 index /FID ne {def} {pop pop} ifelse} forall
  /Encoding WinAnsiEncoding def
  currentdict
end
/Helvetica exch definefont pop
/Courier-BoldOblique findfont
dup length dict begin
  {1 index /FID ne {def} {pop pop} ifelse} forall
  /Encoding WinAnsiEncoding def
  currentdict
end
/Courier-BoldOblique exch definefont pop
/Courier-Oblique findfont
dup length dict begin
  {1 index /FID ne {def} {pop pop} ifelse} forall
  /Encoding WinAnsiEncoding def
  currentdict
end
/Courier-Oblique exch definefont pop
/Times-Roman findfont
dup length dict begin
  {1 index /FID ne {def} {pop pop} ifelse} forall
  /Encoding WinAnsiEncoding def
  currentdict
end
/Times-Roman exch definefont pop
/Helvetica-BoldOblique findfont
dup length dict begin
  {1 index /FID ne {def} {pop pop} ifelse} forall
  /Encoding WinAnsiEncoding def
  currentdict
end
/Helvetica-BoldOblique exch definefont pop
/Helvetica-Bold findfont
dup length dict begin
  {1 index /FID ne {def} {pop pop} ifelse} forall
  /Encoding WinAnsiEncoding def
  currentdict
end
/Helvetica-Bold exch definefont pop
/Helvetica-Oblique findfont
dup length dict begin
  {1 index /FID ne {def} {pop pop} ifelse} forall
  /Encoding WinAnsiEncoding def
  currentdict
end
/Helvetica-Oblique exch definefont pop
/Times-BoldItalic findfont
dup length dict begin
  {1 index /FID ne {def} {pop pop} ifelse} forall
  /Encoding WinAnsiEncoding def
  currentdict
end
/Times-BoldItalic exch definefont pop
/Courier findfont
dup length dict begin
  {1 index /FID ne {def} {pop pop} ifelse} forall
  /Encoding WinAnsiEncoding def
  currentdict
end
/Courier exch definefont pop
/Times-Italic findfont
dup length dict begin
  {1 index /FID ne {def} {pop pop} ifelse} forall
  /Encoding WinAnsiEncoding def
  currentdict
end
/Times-Italic exch definefont pop
/Times-Bold findfont
dup length dict begin
  {1 index /FID ne {def} {pop pop} ifelse} forall
  /Encoding WinAnsiEncoding def
  currentdict
end
/Times-Bold exch definefont pop
%FOPEndFontReencode
%%EndProlog
%%Page: 1 1
%%PageBoundingBox: 0 0 753 428
%%BeginPageSetup
[1 0 0 -1 0 428] CT
%%EndPageSetup
GS
1 GC
N
0 0 753 428 re
f
GR
GS
1 GC
N
0 0 753 428 re
f
GR
GS
1 GC
N
98 178 M
681 178 L
681 32 L
98 32 L
cp
f
GR
GS
0.149 GC
2 setlinecap
1 LJ
0.5 LW
N
98 178 M
681 178 L
S
GR
GS
0.149 GC
2 setlinecap
1 LJ
0.5 LW
N
98 32 M
681 32 L
S
GR
GS
0.149 GC
2 setlinecap
1 LJ
0.5 LW
N
98 178 M
98 172.17 L
S
GR
GS
0.149 GC
2 setlinecap
1 LJ
0.5 LW
N
181.286 178 M
181.286 172.17 L
S
GR
GS
0.149 GC
2 setlinecap
1 LJ
0.5 LW
N
264.571 178 M
264.571 172.17 L
S
GR
GS
0.149 GC
2 setlinecap
1 LJ
0.5 LW
N
347.857 178 M
347.857 172.17 L
S
GR
GS
0.149 GC
2 setlinecap
1 LJ
0.5 LW
N
431.143 178 M
431.143 172.17 L
S
GR
GS
0.149 GC
2 setlinecap
1 LJ
0.5 LW
N
514.429 178 M
514.429 172.17 L
S
GR
GS
0.149 GC
2 setlinecap
1 LJ
0.5 LW
N
597.714 178 M
597.714 172.17 L
S
GR
GS
0.149 GC
2 setlinecap
1 LJ
0.5 LW
N
681 178 M
681 172.17 L
S
GR
GS
0.149 GC
2 setlinecap
1 LJ
0.5 LW
N
98 32 M
98 37.83 L
S
GR
GS
0.149 GC
2 setlinecap
1 LJ
0.5 LW
N
181.286 32 M
181.286 37.83 L
S
GR
GS
0.149 GC
2 setlinecap
1 LJ
0.5 LW
N
264.571 32 M
264.571 37.83 L
S
GR
GS
0.149 GC
2 setlinecap
1 LJ
0.5 LW
N
347.857 32 M
347.857 37.83 L
S
GR
GS
0.149 GC
2 setlinecap
1 LJ
0.5 LW
N
431.143 32 M
431.143 37.83 L
S
GR
GS
0.149 GC
2 setlinecap
1 LJ
0.5 LW
N
514.429 32 M
514.429 37.83 L
S
GR
GS
0.149 GC
2 setlinecap
1 LJ
0.5 LW
N
597.714 32 M
597.714 37.83 L
S
GR
GS
0.149 GC
2 setlinecap
1 LJ
0.5 LW
N
681 32 M
681 37.83 L
S
GR
GS
[1 0 0 1 98 182] CT
0.149 GC
/Helvetica 10 F
GS
[1 0 0 1 0 0] CT
-3 10 moveto 
1 -1 scale
(0) t 
GR
GR
GS
[1 0 0 1 181.28572 182] CT
0.149 GC
/Helvetica 10 F
GS
[1 0 0 1 0 0] CT
-3 10 moveto 
1 -1 scale
(2) t 
GR
GR
GS
[1 0 0 1 264.57144 182] CT
0.149 GC
/Helvetica 10 F
GS
[1 0 0 1 0 0] CT
-3 10 moveto 
1 -1 scale
(4) t 
GR
GR
GS
[1 0 0 1 347.85715 182] CT
0.149 GC
/Helvetica 10 F
GS
[1 0 0 1 0 0] CT
-3 10 moveto 
1 -1 scale
(6) t 
GR
GR
GS
[1 0 0 1 431.14285 182] CT
0.149 GC
/Helvetica 10 F
GS
[1 0 0 1 0 0] CT
-3 10 moveto 
1 -1 scale
(8) t 
GR
GR
GS
[1 0 0 1 514.42859 182] CT
0.149 GC
/Helvetica 10 F
GS
[1 0 0 1 0 0] CT
-6 10 moveto 
1 -1 scale
(10) t 
GR
GR
GS
[1 0 0 1 597.71429 182] CT
0.149 GC
/Helvetica 10 F
GS
[1 0 0 1 0 0] CT
-6 10 moveto 
1 -1 scale
(12) t 
GR
GR
GS
[1 0 0 1 681 182] CT
0.149 GC
/Helvetica 10 F
GS
[1 0 0 1 0 0] CT
-6 10 moveto 
1 -1 scale
(14) t 
GR
GR
GS
[1 0 0 1 389.50027 196] CT
0.149 GC
/Helvetica 11 F
GS
[1 0 0 1 0 0] CT
-6 11 moveto 
1 -1 scale
(kL) t 
GR
GR
GS
0.149 GC
2 setlinecap
1 LJ
0.5 LW
N
98 178 M
98 32 L
S
GR
GS
0.149 GC
2 setlinecap
1 LJ
0.5 LW
N
681 178 M
681 32 L
S
GR
GS
0.149 GC
2 setlinecap
1 LJ
0.5 LW
N
98 178 M
103.83 178 L
S
GR
GS
0.149 GC
2 setlinecap
1 LJ
0.5 LW
N
98 148.8 M
103.83 148.8 L
S
GR
GS
0.149 GC
2 setlinecap
1 LJ
0.5 LW
N
98 119.6 M
103.83 119.6 L
S
GR
GS
0.149 GC
2 setlinecap
1 LJ
0.5 LW
N
98 90.4 M
103.83 90.4 L
S
GR
GS
0.149 GC
2 setlinecap
1 LJ
0.5 LW
N
98 61.2 M
103.83 61.2 L
S
GR
GS
0.149 GC
2 setlinecap
1 LJ
0.5 LW
N
98 32 M
103.83 32 L
S
GR
GS
0.149 GC
2 setlinecap
1 LJ
0.5 LW
N
681 178 M
675.17 178 L
S
GR
GS
0.149 GC
2 setlinecap
1 LJ
0.5 LW
N
681 148.8 M
675.17 148.8 L
S
GR
GS
0.149 GC
2 setlinecap
1 LJ
0.5 LW
N
681 119.6 M
675.17 119.6 L
S
GR
GS
0.149 GC
2 setlinecap
1 LJ
0.5 LW
N
681 90.4 M
675.17 90.4 L
S
GR
GS
0.149 GC
2 setlinecap
1 LJ
0.5 LW
N
681 61.2 M
675.17 61.2 L
S
GR
GS
0.149 GC
2 setlinecap
1 LJ
0.5 LW
N
681 32 M
675.17 32 L
S
GR
GS
[1 0 0 1 94 178] CT
0.149 GC
/Helvetica 10 F
GS
[1 0 0 1 0 0] CT
-6 3.5 moveto 
1 -1 scale
(0) t 
GR
GR
GS
[1 0 0 1 94 148.8] CT
0.149 GC
/Helvetica 10 F
GS
[1 0 0 1 0 0] CT
-12 3.5 moveto 
1 -1 scale
(20) t 
GR
GR
GS
[1 0 0 1 94 119.6] CT
0.149 GC
/Helvetica 10 F
GS
[1 0 0 1 0 0] CT
-12 3.5 moveto 
1 -1 scale
(40) t 
GR
GR
GS
[1 0 0 1 94 90.4] CT
0.149 GC
/Helvetica 10 F
GS
[1 0 0 1 0 0] CT
-12 3.5 moveto 
1 -1 scale
(60) t 
GR
GR
GS
[1 0 0 1 94 61.2] CT
0.149 GC
/Helvetica 10 F
GS
[1 0 0 1 0 0] CT
-12 3.5 moveto 
1 -1 scale
(80) t 
GR
GR
GS
[1 0 0 1 94 32] CT
0.149 GC
/Helvetica 10 F
GS
[1 0 0 1 0 0] CT
-17 3.5 moveto 
1 -1 scale
(100) t 
GR
GR
GS
[0 -1 1 0 67 128] CT
0.149 GC
/Helvetica 11 F
GS
[1 0 0 1 0 0] CT
0 0 moveto 
1 -1 scale
(|Z) t 
GR
GR
GS
[0 -1 1 0 72 118] CT
0.149 GC
/Helvetica 8.8 F
GS
[1 0 0 1 0 0] CT
0 0 moveto 
1 -1 scale
(IN) t 
GR
GR
GS
[0 -1 1 0 67 109] CT
0.149 GC
/Helvetica 11 F
GS
[1 0 0 1 0 0] CT
0 0 moveto 
1 -1 scale
(|) t 
GR
GR
GS
[0 -1 1 0 62 106] CT
0.149 GC
/Helvetica 8.8 F
GS
[1 0 0 1 0 0] CT
0 0 moveto 
1 -1 scale
(2) t 
GR
GR
GS
[0 -1 1 0 67 100] CT
0.149 GC
/Helvetica 11 F
GS
[1 0 0 1 0 0] CT
0 0 moveto 
1 -1 scale
(/Z) t 
GR
GR
GS
[0 -1 1 0 72 89] CT
0.149 GC
/Helvetica 8.8 F
GS
[1 0 0 1 0 0] CT
0 0 moveto 
1 -1 scale
(1) t 
GR
GR
GS
[0 -1 1 0 62 89] CT
0.149 GC
/Helvetica 8.8 F
GS
[1 0 0 1 0 0] CT
0 0 moveto 
1 -1 scale
(2) t 
GR
GR
GS
0 0.447 0.741 RC
1 LJ
0.5 LW
N
98 32 M
98.416 33.445 L
98.833 37.616 L
99.249 44.06 L
99.666 52.154 L
100.082 61.236 L
100.499 70.711 L
100.915 80.114 L
101.331 89.118 L
101.748 97.526 L
102.164 105.237 L
102.581 112.221 L
102.997 118.495 L
103.414 124.101 L
103.83 129.094 L
104.246 133.534 L
104.663 137.483 L
105.079 140.995 L
105.496 144.124 L
105.912 146.916 L
106.329 149.412 L
106.745 151.648 L
107.161 153.657 L
107.578 155.465 L
107.994 157.096 L
108.411 158.572 L
108.827 159.911 L
109.244 161.127 L
109.66 162.235 L
110.076 163.247 L
110.493 164.173 L
110.909 165.022 L
111.326 165.802 L
111.742 166.52 L
112.159 167.182 L
112.575 167.794 L
112.991 168.361 L
113.408 168.886 L
113.824 169.374 L
114.241 169.828 L
114.657 170.251 L
115.074 170.646 L
115.49 171.015 L
115.906 171.36 L
116.323 171.683 L
116.739 171.986 L
117.156 172.271 L
117.572 172.539 L
117.989 172.791 L
118.405 173.028 L
118.821 173.252 L
119.238 173.464 L
119.654 173.664 L
120.071 173.853 L
120.487 174.033 L
120.904 174.202 L
121.32 174.364 L
121.736 174.516 L
122.153 174.662 L
122.569 174.8 L
122.986 174.932 L
123.402 175.057 L
123.819 175.176 L
124.235 175.29 L
124.651 175.399 L
125.068 175.502 L
125.484 175.601 L
125.901 175.696 L
126.317 175.787 L
126.734 175.873 L
127.15 175.956 L
127.566 176.036 L
127.983 176.112 L
128.399 176.185 L
128.816 176.255 L
129.232 176.322 L
129.649 176.387 L
130.065 176.449 L
130.481 176.509 L
130.898 176.566 L
131.314 176.621 L
131.731 176.674 L
132.147 176.725 L
132.564 176.775 L
132.98 176.822 L
133.396 176.867 L
133.813 176.911 L
134.229 176.954 L
134.646 176.995 L
135.062 177.034 L
135.479 177.072 L
135.895 177.108 L
136.311 177.144 L
136.728 177.178 L
137.144 177.211 L
137.561 177.243 L
137.977 177.273 L
138.394 177.303 L
138.81 177.332 L
139.226 177.359 L
139.643 177.386 L
140.059 177.412 L
140.476 177.437 L
140.892 177.461 L
141.309 177.484 L
141.725 177.507 L
142.141 177.528 L
142.558 177.549 L
142.974 177.57 L
143.391 177.589 L
143.807 177.608 L
144.224 177.626 L
144.64 177.644 L
145.056 177.661 L
145.473 177.678 L
145.889 177.694 L
146.306 177.709 L
146.722 177.724 L
147.139 177.738 L
147.555 177.752 L
147.971 177.765 L
148.388 177.778 L
148.804 177.79 L
149.221 177.802 L
149.637 177.813 L
150.054 177.824 L
150.47 177.835 L
150.886 177.845 L
151.303 177.855 L
151.719 177.864 L
152.136 177.873 L
152.552 177.882 L
152.969 177.89 L
153.385 177.897 L
153.801 177.905 L
154.218 177.912 L
154.634 177.919 L
155.051 177.925 L
155.467 177.931 L
155.884 177.937 L
156.3 177.942 L
156.716 177.947 L
157.133 177.952 L
157.549 177.956 L
157.966 177.96 L
158.382 177.964 L
158.799 177.967 L
159.215 177.97 L
159.631 177.973 L
160.048 177.976 L
160.464 177.978 L
160.881 177.98 L
161.297 177.982 L
161.714 177.983 L
162.13 177.984 L
162.546 177.985 L
162.963 177.985 L
163.379 177.985 L
163.796 177.985 L
164.212 177.985 L
164.629 177.984 L
165.045 177.983 L
165.461 177.982 L
165.878 177.98 L
166.294 177.978 L
166.711 177.976 L
167.127 177.974 L
167.544 177.971 L
167.96 177.968 L
168.376 177.964 L
168.793 177.961 L
169.209 177.957 L
169.626 177.952 L
170.042 177.948 L
170.459 177.943 L
170.875 177.938 L
171.291 177.932 L
171.708 177.926 L
172.124 177.92 L
172.541 177.913 L
172.957 177.906 L
173.374 177.899 L
173.79 177.891 L
174.206 177.883 L
174.623 177.874 L
175.039 177.866 L
175.456 177.856 L
175.872 177.847 L
176.289 177.837 L
176.705 177.826 L
177.121 177.815 L
177.538 177.804 L
177.954 177.792 L
178.371 177.78 L
178.787 177.767 L
179.204 177.754 L
179.62 177.74 L
180.036 177.726 L
180.453 177.711 L
180.869 177.696 L
181.286 177.68 L
181.702 177.664 L
182.119 177.647 L
182.535 177.629 L
182.951 177.611 L
183.368 177.592 L
183.784 177.573 L
184.201 177.553 L
184.617 177.532 L
185.034 177.51 L
185.45 177.488 L
185.866 177.465 L
186.283 177.441 L
186.699 177.416 L
187.116 177.39 L
187.532 177.364 L
187.949 177.336 L
188.365 177.308 L
188.781 177.278 L
189.198 177.248 L
189.614 177.216 L
190.031 177.183 L
190.447 177.149 L
190.864 177.114 L
191.28 177.078 L
191.696 177.04 L
192.113 177.001 L
192.529 176.96 L
192.946 176.918 L
193.362 176.875 L
193.779 176.829 L
194.195 176.782 L
194.611 176.733 L
195.028 176.683 L
195.444 176.63 L
195.861 176.575 L
196.277 176.518 L
196.694 176.459 L
197.11 176.397 L
197.526 176.333 L
197.943 176.266 L
198.359 176.196 L
198.776 176.124 L
199.192 176.048 L
199.609 175.969 L
200.025 175.887 L
200.441 175.801 L
200.858 175.711 L
201.274 175.617 L
201.691 175.518 L
202.107 175.415 L
202.524 175.308 L
202.94 175.195 L
203.356 175.076 L
203.773 174.952 L
204.189 174.821 L
204.606 174.684 L
205.022 174.54 L
205.439 174.388 L
205.855 174.229 L
206.271 174.06 L
206.688 173.883 L
207.104 173.695 L
207.521 173.497 L
207.937 173.287 L
208.354 173.065 L
208.77 172.83 L
209.186 172.58 L
209.603 172.315 L
210.019 172.033 L
210.436 171.733 L
210.852 171.413 L
211.269 171.071 L
211.685 170.706 L
212.101 170.316 L
212.518 169.898 L
212.934 169.449 L
213.351 168.966 L
213.767 168.447 L
214.184 167.887 L
214.6 167.283 L
215.016 166.629 L
215.433 165.92 L
215.849 165.15 L
216.266 164.313 L
216.682 163.4 L
217.099 162.402 L
217.515 161.31 L
217.931 160.112 L
218.348 158.794 L
218.764 157.341 L
219.181 155.736 L
219.597 153.958 L
220.014 151.983 L
220.43 149.785 L
220.846 147.332 L
221.263 144.59 L
221.679 141.518 L
222.096 138.07 L
222.512 134.195 L
222.929 129.836 L
223.345 124.936 L
223.761 119.431 L
224.178 113.267 L
224.594 106.398 L
225.011 98.802 L
225.427 90.501 L
225.844 81.581 L
226.26 72.224 L
226.676 62.733 L
227.093 53.551 L
227.509 45.256 L
227.926 38.505 L
228.342 33.936 L
228.759 32.037 L
229.175 33.025 L
229.591 36.785 L
230.008 42.906 L
230.424 50.782 L
230.841 59.749 L
231.257 69.197 L
231.674 78.636 L
232.09 87.72 L
232.506 96.232 L
232.923 104.057 L
233.339 111.157 L
233.756 117.542 L
234.172 123.251 L
234.589 128.337 L
235.005 132.862 L
235.421 136.884 L
235.838 140.463 L
236.254 143.65 L
236.671 146.492 L
237.087 149.033 L
237.504 151.308 L
237.92 153.351 L
238.336 155.189 L
238.753 156.847 L
239.169 158.347 L
239.586 159.706 L
240.002 160.941 L
240.419 162.065 L
240.835 163.092 L
241.251 164.031 L
241.668 164.891 L
242.084 165.682 L
242.501 166.409 L
242.917 167.08 L
243.334 167.7 L
243.75 168.273 L
244.166 168.805 L
244.583 169.299 L
244.999 169.758 L
245.416 170.186 L
245.832 170.585 L
246.249 170.958 L
246.665 171.306 L
247.081 171.633 L
247.498 171.939 L
247.914 172.227 L
248.331 172.497 L
248.747 172.752 L
249.164 172.991 L
249.58 173.218 L
249.996 173.431 L
250.413 173.633 L
250.829 173.824 L
251.246 174.005 L
251.662 174.176 L
252.079 174.338 L
252.495 174.493 L
252.911 174.639 L
253.328 174.779 L
253.744 174.911 L
254.161 175.037 L
254.577 175.158 L
254.994 175.272 L
255.41 175.382 L
255.826 175.486 L
256.243 175.586 L
256.659 175.681 L
257.076 175.772 L
257.492 175.86 L
257.909 175.943 L
258.325 176.023 L
258.741 176.1 L
259.158 176.174 L
259.574 176.244 L
259.991 176.312 L
260.407 176.377 L
260.824 176.439 L
261.24 176.499 L
261.656 176.557 L
262.073 176.613 L
262.489 176.666 L
262.906 176.717 L
263.322 176.767 L
263.739 176.814 L
264.155 176.86 L
264.571 176.904 L
264.988 176.947 L
265.404 176.988 L
265.821 177.028 L
266.237 177.066 L
266.654 177.103 L
267.07 177.138 L
267.486 177.173 L
267.903 177.206 L
268.319 177.238 L
268.736 177.269 L
269.152 177.298 L
269.569 177.327 L
269.985 177.355 L
270.401 177.382 L
270.818 177.408 L
271.234 177.433 L
271.651 177.457 L
272.067 177.48 L
272.484 177.503 L
272.9 177.525 L
273.316 177.546 L
273.733 177.566 L
274.149 177.586 L
274.566 177.605 L
274.982 177.624 L
275.399 177.641 L
275.815 177.659 L
276.231 177.675 L
276.648 177.691 L
277.064 177.707 L
277.481 177.721 L
277.897 177.736 L
278.314 177.75 L
278.73 177.763 L
279.146 177.776 L
279.563 177.788 L
279.979 177.8 L
280.396 177.812 L
280.812 177.823 L
281.229 177.833 L
281.645 177.843 L
282.061 177.853 L
282.478 177.863 L
282.894 177.872 L
283.311 177.88 L
283.727 177.888 L
284.144 177.896 L
284.56 177.904 L
284.976 177.911 L
285.393 177.918 L
285.809 177.924 L
286.226 177.93 L
286.642 177.936 L
287.059 177.941 L
287.475 177.946 L
287.891 177.951 L
288.308 177.955 L
288.724 177.96 L
289.141 177.963 L
289.557 177.967 L
289.974 177.97 L
290.39 177.973 L
290.806 177.975 L
291.223 177.978 L
291.639 177.98 L
292.056 177.981 L
292.472 177.983 L
292.889 177.984 L
293.305 177.985 L
293.721 177.985 L
294.138 177.985 L
294.554 177.985 L
294.971 177.985 L
295.387 177.984 L
295.804 177.983 L
296.22 177.982 L
296.636 177.981 L
297.053 177.979 L
297.469 177.977 L
297.886 177.974 L
298.302 177.971 L
298.719 177.968 L
299.135 177.965 L
299.551 177.961 L
299.968 177.957 L
300.384 177.953 L
300.801 177.949 L
301.217 177.944 L
301.634 177.938 L
302.05 177.933 L
302.466 177.927 L
302.883 177.921 L
303.299 177.914 L
303.716 177.907 L
304.132 177.9 L
304.549 177.892 L
304.965 177.884 L
305.381 177.876 L
305.798 177.867 L
306.214 177.858 L
306.631 177.848 L
307.047 177.838 L
307.464 177.828 L
307.88 177.817 L
308.296 177.806 L
308.713 177.794 L
309.129 177.782 L
309.546 177.769 L
309.962 177.756 L
310.379 177.742 L
310.795 177.728 L
311.211 177.714 L
311.628 177.699 L
312.044 177.683 L
312.461 177.667 L
312.877 177.65 L
313.294 177.632 L
313.71 177.614 L
314.126 177.595 L
314.543 177.576 L
314.959 177.556 L
315.376 177.535 L
315.792 177.514 L
316.209 177.491 L
316.625 177.468 L
317.041 177.445 L
317.458 177.42 L
317.874 177.394 L
318.291 177.368 L
318.707 177.341 L
319.124 177.312 L
319.54 177.283 L
319.956 177.253 L
320.373 177.221 L
320.789 177.189 L
321.206 177.155 L
321.622 177.12 L
322.039 177.084 L
322.455 177.046 L
322.871 177.007 L
323.288 176.967 L
323.704 176.925 L
324.121 176.882 L
324.537 176.837 L
324.954 176.79 L
325.37 176.741 L
325.786 176.691 L
326.203 176.638 L
326.619 176.584 L
327.036 176.527 L
327.452 176.468 L
327.869 176.407 L
328.285 176.343 L
328.701 176.277 L
329.118 176.208 L
329.534 176.136 L
329.951 176.06 L
330.367 175.982 L
330.784 175.9 L
331.2 175.815 L
331.616 175.725 L
332.033 175.632 L
332.449 175.534 L
332.866 175.432 L
333.282 175.325 L
333.699 175.213 L
334.115 175.095 L
334.531 174.972 L
334.948 174.843 L
335.364 174.707 L
335.781 174.564 L
336.197 174.413 L
336.614 174.255 L
337.03 174.088 L
337.446 173.911 L
337.863 173.726 L
338.279 173.529 L
338.696 173.321 L
339.112 173.101 L
339.529 172.868 L
339.945 172.621 L
340.361 172.358 L
340.778 172.079 L
341.194 171.782 L
341.611 171.465 L
342.027 171.127 L
342.444 170.766 L
342.86 170.38 L
343.276 169.966 L
343.693 169.522 L
344.109 169.046 L
344.526 168.532 L
344.942 167.979 L
345.359 167.382 L
345.775 166.736 L
346.191 166.037 L
346.608 165.277 L
347.024 164.451 L
347.441 163.551 L
347.857 162.567 L
348.274 161.491 L
348.69 160.311 L
349.106 159.013 L
349.523 157.583 L
349.939 156.003 L
350.356 154.253 L
350.772 152.311 L
351.189 150.151 L
351.605 147.741 L
352.021 145.048 L
352.438 142.031 L
352.854 138.646 L
353.271 134.843 L
353.687 130.565 L
354.104 125.755 L
354.52 120.351 L
354.936 114.295 L
355.353 107.54 L
355.769 100.06 L
356.186 91.868 L
356.602 83.037 L
357.019 73.733 L
357.435 64.237 L
357.851 54.97 L
358.268 46.492 L
358.684 39.45 L
359.101 34.495 L
359.517 32.148 L
359.934 32.675 L
360.35 36.015 L
360.766 41.797 L
361.183 49.438 L
361.599 58.274 L
362.016 67.682 L
362.432 77.15 L
362.849 86.308 L
363.265 94.92 L
363.681 102.859 L
364.098 110.075 L
364.514 116.572 L
364.931 122.385 L
365.347 127.566 L
365.764 132.176 L
366.18 136.275 L
366.596 139.92 L
367.013 143.166 L
367.429 146.061 L
367.846 148.647 L
368.262 150.962 L
368.679 153.04 L
369.095 154.909 L
369.511 156.595 L
369.928 158.118 L
370.344 159.498 L
370.761 160.752 L
371.177 161.893 L
371.594 162.934 L
372.01 163.887 L
372.426 164.759 L
372.843 165.56 L
373.259 166.297 L
373.676 166.977 L
374.092 167.604 L
374.509 168.185 L
374.925 168.723 L
375.341 169.223 L
375.758 169.687 L
376.174 170.12 L
376.591 170.523 L
377.007 170.9 L
377.424 171.252 L
377.84 171.582 L
378.256 171.892 L
378.673 172.182 L
379.089 172.455 L
379.506 172.712 L
379.922 172.954 L
380.339 173.182 L
380.755 173.398 L
381.171 173.602 L
381.588 173.794 L
382.004 173.977 L
382.421 174.149 L
382.837 174.313 L
383.254 174.469 L
383.67 174.616 L
384.086 174.757 L
384.503 174.89 L
384.919 175.018 L
385.336 175.139 L
385.752 175.254 L
386.169 175.365 L
386.585 175.47 L
387.001 175.57 L
387.418 175.666 L
387.834 175.758 L
388.251 175.846 L
388.667 175.93 L
389.084 176.011 L
389.5 176.088 L
389.916 176.162 L
390.333 176.233 L
390.749 176.301 L
391.166 176.367 L
391.582 176.43 L
391.999 176.49 L
392.415 176.548 L
392.831 176.604 L
393.248 176.658 L
393.664 176.709 L
394.081 176.759 L
394.497 176.807 L
394.914 176.853 L
395.33 176.898 L
395.746 176.94 L
396.163 176.982 L
396.579 177.021 L
396.996 177.06 L
397.412 177.097 L
397.829 177.133 L
398.245 177.167 L
398.661 177.201 L
399.078 177.233 L
399.494 177.264 L
399.911 177.294 L
400.327 177.323 L
400.744 177.351 L
401.16 177.378 L
401.576 177.404 L
401.993 177.429 L
402.409 177.453 L
402.826 177.477 L
403.242 177.5 L
403.659 177.522 L
404.075 177.543 L
404.491 177.563 L
404.908 177.583 L
405.324 177.602 L
405.741 177.621 L
406.157 177.639 L
406.574 177.656 L
406.99 177.673 L
407.406 177.689 L
407.823 177.704 L
408.239 177.719 L
408.656 177.734 L
409.072 177.747 L
409.489 177.761 L
409.905 177.774 L
410.321 177.786 L
410.738 177.798 L
411.154 177.81 L
411.571 177.821 L
411.987 177.832 L
412.404 177.842 L
412.82 177.852 L
413.236 177.861 L
413.653 177.87 L
414.069 177.879 L
414.486 177.887 L
414.902 177.895 L
415.319 177.903 L
415.735 177.91 L
416.151 177.916 L
416.568 177.923 L
416.984 177.929 L
417.401 177.935 L
417.817 177.94 L
418.234 177.945 L
418.65 177.95 L
419.066 177.955 L
419.483 177.959 L
419.899 177.963 L
420.316 177.966 L
420.732 177.969 L
421.149 177.972 L
421.565 177.975 L
421.981 177.977 L
422.398 177.979 L
422.814 177.981 L
423.231 177.983 L
423.647 177.984 L
424.064 177.985 L
424.48 177.985 L
424.896 177.985 L
425.313 177.985 L
425.729 177.985 L
426.146 177.984 L
426.562 177.984 L
426.979 177.982 L
427.395 177.981 L
427.811 177.979 L
428.228 177.977 L
428.644 177.975 L
429.061 177.972 L
429.477 177.969 L
429.894 177.966 L
430.31 177.962 L
430.726 177.958 L
431.143 177.954 L
431.559 177.949 L
431.976 177.944 L
432.392 177.939 L
432.809 177.934 L
433.225 177.928 L
433.641 177.922 L
434.058 177.915 L
434.474 177.908 L
434.891 177.901 L
435.307 177.893 L
435.724 177.885 L
436.14 177.877 L
436.556 177.868 L
436.973 177.859 L
437.389 177.85 L
437.806 177.84 L
438.222 177.829 L
438.639 177.819 L
439.055 177.808 L
439.471 177.796 L
439.888 177.784 L
440.304 177.771 L
440.721 177.758 L
441.137 177.745 L
441.554 177.731 L
441.97 177.716 L
442.386 177.701 L
442.803 177.685 L
443.219 177.669 L
443.636 177.652 L
444.052 177.635 L
444.469 177.617 L
444.885 177.598 L
445.301 177.579 L
445.718 177.559 L
446.134 177.538 L
446.551 177.517 L
446.967 177.495 L
447.384 177.472 L
447.8 177.448 L
448.216 177.424 L
448.633 177.398 L
449.049 177.372 L
449.466 177.345 L
449.882 177.317 L
450.299 177.288 L
450.715 177.257 L
451.131 177.226 L
451.548 177.194 L
451.964 177.16 L
452.381 177.126 L
452.797 177.09 L
453.214 177.052 L
453.63 177.014 L
454.046 176.973 L
454.463 176.932 L
454.879 176.889 L
455.296 176.844 L
455.712 176.797 L
456.129 176.749 L
456.545 176.699 L
456.961 176.647 L
457.378 176.593 L
457.794 176.536 L
458.211 176.478 L
458.627 176.417 L
459.044 176.354 L
459.46 176.288 L
459.876 176.219 L
460.293 176.147 L
460.709 176.073 L
461.126 175.995 L
461.542 175.913 L
461.959 175.828 L
462.375 175.74 L
462.791 175.647 L
463.208 175.55 L
463.624 175.449 L
464.041 175.343 L
464.457 175.231 L
464.874 175.115 L
465.29 174.992 L
465.706 174.864 L
466.123 174.729 L
466.539 174.587 L
466.956 174.438 L
467.372 174.28 L
467.789 174.115 L
468.205 173.94 L
468.621 173.756 L
469.038 173.561 L
469.454 173.355 L
469.871 173.137 L
470.287 172.906 L
470.704 172.661 L
471.12 172.401 L
471.536 172.124 L
471.953 171.83 L
472.369 171.517 L
472.786 171.182 L
473.202 170.825 L
473.619 170.443 L
474.035 170.034 L
474.451 169.595 L
474.868 169.124 L
475.284 168.617 L
475.701 168.07 L
476.117 167.48 L
476.534 166.843 L
476.95 166.152 L
477.366 165.402 L
477.783 164.587 L
478.199 163.699 L
478.616 162.73 L
479.032 161.669 L
479.449 160.506 L
479.865 159.228 L
480.281 157.82 L
480.698 156.265 L
481.114 154.544 L
481.531 152.635 L
481.947 150.511 L
482.364 148.143 L
482.78 145.498 L
483.196 142.535 L
483.613 139.212 L
484.029 135.479 L
484.446 131.281 L
484.862 126.559 L
485.279 121.254 L
485.695 115.305 L
486.111 108.664 L
486.528 101.3 L
486.944 93.218 L
487.361 84.481 L
487.777 75.236 L
488.194 65.746 L
488.61 56.409 L
489.026 47.763 L
489.443 40.448 L
489.859 35.12 L
490.276 32.333 L
490.692 32.397 L
491.109 35.307 L
491.525 40.735 L
491.941 48.124 L
492.358 56.814 L
492.774 66.168 L
493.191 75.654 L
493.607 84.881 L
494.024 93.592 L
494.44 101.643 L
494.856 108.974 L
495.273 115.584 L
495.689 121.503 L
496.106 126.781 L
496.522 131.478 L
496.939 135.654 L
497.355 139.368 L
497.771 142.674 L
498.188 145.621 L
498.604 148.254 L
499.021 150.61 L
499.437 152.724 L
499.854 154.624 L
500.27 156.337 L
500.686 157.885 L
501.103 159.287 L
501.519 160.56 L
501.936 161.718 L
502.352 162.775 L
502.769 163.74 L
503.185 164.625 L
503.601 165.437 L
504.018 166.184 L
504.434 166.872 L
504.851 167.508 L
505.267 168.095 L
505.684 168.64 L
506.1 169.146 L
506.516 169.615 L
506.933 170.053 L
507.349 170.461 L
507.766 170.842 L
508.182 171.198 L
508.599 171.531 L
509.015 171.844 L
509.431 172.137 L
509.848 172.413 L
510.264 172.672 L
510.681 172.917 L
511.097 173.147 L
511.514 173.364 L
511.93 173.57 L
512.346 173.764 L
512.763 173.948 L
513.179 174.122 L
513.596 174.288 L
514.012 174.444 L
514.429 174.593 L
514.845 174.735 L
515.261 174.87 L
515.678 174.998 L
516.094 175.12 L
516.511 175.236 L
516.927 175.347 L
517.344 175.453 L
517.76 175.555 L
518.176 175.651 L
518.593 175.744 L
519.009 175.832 L
519.426 175.917 L
519.842 175.998 L
520.259 176.076 L
520.675 176.151 L
521.091 176.222 L
521.508 176.291 L
521.924 176.357 L
522.341 176.42 L
522.757 176.481 L
523.174 176.539 L
523.59 176.595 L
524.006 176.649 L
524.423 176.701 L
524.839 176.751 L
525.256 176.799 L
525.672 176.846 L
526.089 176.891 L
526.505 176.934 L
526.921 176.975 L
527.338 177.015 L
527.754 177.054 L
528.171 177.091 L
528.587 177.127 L
529.004 177.162 L
529.42 177.195 L
529.836 177.228 L
530.253 177.259 L
530.669 177.289 L
531.086 177.318 L
531.502 177.346 L
531.919 177.373 L
532.335 177.4 L
532.751 177.425 L
533.168 177.449 L
533.584 177.473 L
534.001 177.496 L
534.417 177.518 L
534.834 177.539 L
535.25 177.56 L
535.666 177.58 L
536.083 177.599 L
536.499 177.618 L
536.916 177.636 L
537.332 177.653 L
537.749 177.67 L
538.165 177.686 L
538.581 177.702 L
538.998 177.717 L
539.414 177.731 L
539.831 177.745 L
540.247 177.759 L
540.664 177.772 L
541.08 177.784 L
541.496 177.796 L
541.913 177.808 L
542.329 177.819 L
542.746 177.83 L
543.162 177.84 L
543.579 177.85 L
543.995 177.86 L
544.411 177.869 L
544.828 177.877 L
545.244 177.886 L
545.661 177.894 L
546.077 177.901 L
546.494 177.909 L
546.91 177.915 L
547.326 177.922 L
547.743 177.928 L
548.159 177.934 L
548.576 177.939 L
548.992 177.945 L
549.409 177.949 L
549.825 177.954 L
550.241 177.958 L
550.658 177.962 L
551.074 177.966 L
551.491 177.969 L
551.907 177.972 L
552.324 177.975 L
552.74 177.977 L
553.156 177.979 L
553.573 177.981 L
553.989 177.982 L
554.406 177.984 L
554.822 177.984 L
555.239 177.985 L
555.655 177.985 L
556.071 177.985 L
556.488 177.985 L
556.904 177.985 L
557.321 177.984 L
557.737 177.983 L
558.154 177.981 L
558.57 177.979 L
558.986 177.977 L
559.403 177.975 L
559.819 177.972 L
560.236 177.969 L
560.652 177.966 L
561.069 177.963 L
561.485 177.959 L
561.901 177.955 L
562.318 177.95 L
562.734 177.945 L
563.151 177.94 L
563.567 177.935 L
563.984 177.929 L
564.4 177.923 L
564.816 177.916 L
565.233 177.909 L
565.649 177.902 L
566.066 177.895 L
566.482 177.887 L
566.899 177.878 L
567.315 177.87 L
567.731 177.861 L
568.148 177.851 L
568.564 177.841 L
568.981 177.831 L
569.397 177.82 L
569.814 177.809 L
570.23 177.798 L
570.646 177.786 L
571.063 177.773 L
571.479 177.76 L
571.896 177.747 L
572.312 177.733 L
572.729 177.718 L
573.145 177.703 L
573.561 177.688 L
573.978 177.672 L
574.394 177.655 L
574.811 177.638 L
575.227 177.62 L
575.644 177.601 L
576.06 177.582 L
576.476 177.562 L
576.893 177.542 L
577.309 177.521 L
577.726 177.499 L
578.142 177.476 L
578.559 177.452 L
578.975 177.428 L
579.391 177.403 L
579.808 177.376 L
580.224 177.349 L
580.641 177.321 L
581.057 177.292 L
581.474 177.262 L
581.89 177.231 L
582.306 177.199 L
582.723 177.166 L
583.139 177.131 L
583.556 177.095 L
583.972 177.058 L
584.389 177.02 L
584.805 176.98 L
585.221 176.939 L
585.638 176.896 L
586.054 176.851 L
586.471 176.805 L
586.887 176.757 L
587.304 176.707 L
587.72 176.655 L
588.136 176.601 L
588.553 176.546 L
588.969 176.487 L
589.386 176.427 L
589.802 176.364 L
590.219 176.298 L
590.635 176.23 L
591.051 176.159 L
591.468 176.085 L
591.884 176.007 L
592.301 175.927 L
592.717 175.842 L
593.134 175.754 L
593.55 175.662 L
593.966 175.566 L
594.383 175.465 L
594.799 175.36 L
595.216 175.249 L
595.632 175.134 L
596.049 175.012 L
596.465 174.885 L
596.881 174.751 L
597.298 174.61 L
597.714 174.462 L
598.131 174.306 L
598.547 174.142 L
598.964 173.969 L
599.38 173.786 L
599.796 173.593 L
600.213 173.389 L
600.629 173.173 L
601.046 172.944 L
601.462 172.701 L
601.879 172.443 L
602.295 172.17 L
602.711 171.878 L
603.128 171.568 L
603.544 171.237 L
603.961 170.884 L
604.377 170.506 L
604.794 170.101 L
605.21 169.667 L
605.626 169.201 L
606.043 168.7 L
606.459 168.16 L
606.876 167.577 L
607.292 166.948 L
607.709 166.266 L
608.125 165.526 L
608.541 164.722 L
608.958 163.846 L
609.374 162.89 L
609.791 161.845 L
610.207 160.699 L
610.624 159.44 L
611.04 158.053 L
611.456 156.523 L
611.873 154.83 L
612.289 152.952 L
612.706 150.865 L
613.122 148.538 L
613.539 145.939 L
613.955 143.03 L
614.371 139.767 L
614.788 136.103 L
615.204 131.983 L
615.621 127.349 L
616.037 122.14 L
616.454 116.298 L
616.87 109.77 L
617.286 102.522 L
617.703 94.552 L
618.119 85.911 L
618.536 76.733 L
618.952 67.259 L
619.369 57.866 L
619.785 49.068 L
620.201 41.496 L
620.618 35.811 L
621.034 32.59 L
S
GR
GS
1 GC
N
98 381 M
681 381 L
681 235 L
98 235 L
cp
f
GR
GS
0.149 GC
2 setlinecap
1 LJ
0.5 LW
N
98 381 M
681 381 L
S
GR
GS
0.149 GC
2 setlinecap
1 LJ
0.5 LW
N
98 235 M
681 235 L
S
GR
GS
0.149 GC
2 setlinecap
1 LJ
0.5 LW
N
98 381 M
98 375.17 L
S
GR
GS
0.149 GC
2 setlinecap
1 LJ
0.5 LW
N
181.286 381 M
181.286 375.17 L
S
GR
GS
0.149 GC
2 setlinecap
1 LJ
0.5 LW
N
264.571 381 M
264.571 375.17 L
S
GR
GS
0.149 GC
2 setlinecap
1 LJ
0.5 LW
N
347.857 381 M
347.857 375.17 L
S
GR
GS
0.149 GC
2 setlinecap
1 LJ
0.5 LW
N
431.143 381 M
431.143 375.17 L
S
GR
GS
0.149 GC
2 setlinecap
1 LJ
0.5 LW
N
514.429 381 M
514.429 375.17 L
S
GR
GS
0.149 GC
2 setlinecap
1 LJ
0.5 LW
N
597.714 381 M
597.714 375.17 L
S
GR
GS
0.149 GC
2 setlinecap
1 LJ
0.5 LW
N
681 381 M
681 375.17 L
S
GR
GS
0.149 GC
2 setlinecap
1 LJ
0.5 LW
N
98 235 M
98 240.83 L
S
GR
GS
0.149 GC
2 setlinecap
1 LJ
0.5 LW
N
181.286 235 M
181.286 240.83 L
S
GR
GS
0.149 GC
2 setlinecap
1 LJ
0.5 LW
N
264.571 235 M
264.571 240.83 L
S
GR
GS
0.149 GC
2 setlinecap
1 LJ
0.5 LW
N
347.857 235 M
347.857 240.83 L
S
GR
GS
0.149 GC
2 setlinecap
1 LJ
0.5 LW
N
431.143 235 M
431.143 240.83 L
S
GR
GS
0.149 GC
2 setlinecap
1 LJ
0.5 LW
N
514.429 235 M
514.429 240.83 L
S
GR
GS
0.149 GC
2 setlinecap
1 LJ
0.5 LW
N
597.714 235 M
597.714 240.83 L
S
GR
GS
0.149 GC
2 setlinecap
1 LJ
0.5 LW
N
681 235 M
681 240.83 L
S
GR
GS
[1 0 0 1 98 385] CT
0.149 GC
/Helvetica 10 F
GS
[1 0 0 1 0 0] CT
-3 10 moveto 
1 -1 scale
(0) t 
GR
GR
GS
[1 0 0 1 181.28572 385] CT
0.149 GC
/Helvetica 10 F
GS
[1 0 0 1 0 0] CT
-3 10 moveto 
1 -1 scale
(2) t 
GR
GR
GS
[1 0 0 1 264.57144 385] CT
0.149 GC
/Helvetica 10 F
GS
[1 0 0 1 0 0] CT
-3 10 moveto 
1 -1 scale
(4) t 
GR
GR
GS
[1 0 0 1 347.85715 385] CT
0.149 GC
/Helvetica 10 F
GS
[1 0 0 1 0 0] CT
-3 10 moveto 
1 -1 scale
(6) t 
GR
GR
GS
[1 0 0 1 431.14288 385] CT
0.149 GC
/Helvetica 10 F
GS
[1 0 0 1 0 0] CT
-3 10 moveto 
1 -1 scale
(8) t 
GR
GR
GS
[1 0 0 1 514.42859 385] CT
0.149 GC
/Helvetica 10 F
GS
[1 0 0 1 0 0] CT
-6 10 moveto 
1 -1 scale
(10) t 
GR
GR
GS
[1 0 0 1 597.71429 385] CT
0.149 GC
/Helvetica 10 F
GS
[1 0 0 1 0 0] CT
-6 10 moveto 
1 -1 scale
(12) t 
GR
GR
GS
[1 0 0 1 681 385] CT
0.149 GC
/Helvetica 10 F
GS
[1 0 0 1 0 0] CT
-6 10 moveto 
1 -1 scale
(14) t 
GR
GR
GS
[1 0 0 1 389.50027 399] CT
0.149 GC
/Helvetica 11 F
GS
[1 0 0 1 0 0] CT
-6 11 moveto 
1 -1 scale
(kL) t 
GR
GR
GS
0.149 GC
2 setlinecap
1 LJ
0.5 LW
N
98 381 M
98 235 L
S
GR
GS
0.149 GC
2 setlinecap
1 LJ
0.5 LW
N
681 381 M
681 235 L
S
GR
GS
0.149 GC
2 setlinecap
1 LJ
0.5 LW
N
98 381 M
103.83 381 L
S
GR
GS
0.149 GC
2 setlinecap
1 LJ
0.5 LW
N
98 344.5 M
103.83 344.5 L
S
GR
GS
0.149 GC
2 setlinecap
1 LJ
0.5 LW
N
98 308 M
103.83 308 L
S
GR
GS
0.149 GC
2 setlinecap
1 LJ
0.5 LW
N
98 271.5 M
103.83 271.5 L
S
GR
GS
0.149 GC
2 setlinecap
1 LJ
0.5 LW
N
98 235 M
103.83 235 L
S
GR
GS
0.149 GC
2 setlinecap
1 LJ
0.5 LW
N
681 381 M
675.17 381 L
S
GR
GS
0.149 GC
2 setlinecap
1 LJ
0.5 LW
N
681 344.5 M
675.17 344.5 L
S
GR
GS
0.149 GC
2 setlinecap
1 LJ
0.5 LW
N
681 308 M
675.17 308 L
S
GR
GS
0.149 GC
2 setlinecap
1 LJ
0.5 LW
N
681 271.5 M
675.17 271.5 L
S
GR
GS
0.149 GC
2 setlinecap
1 LJ
0.5 LW
N
681 235 M
675.17 235 L
S
GR
GS
0.149 GC
2 setlinecap
1 LJ
0.5 LW
N
98 381 M
100.915 381 L
S
GR
GS
0.149 GC
2 setlinecap
1 LJ
0.5 LW
N
98 370.012 M
100.915 370.012 L
S
GR
GS
0.149 GC
2 setlinecap
1 LJ
0.5 LW
N
98 363.585 M
100.915 363.585 L
S
GR
GS
0.149 GC
2 setlinecap
1 LJ
0.5 LW
N
98 359.025 M
100.915 359.025 L
S
GR
GS
0.149 GC
2 setlinecap
1 LJ
0.5 LW
N
98 355.488 M
100.915 355.488 L
S
GR
GS
0.149 GC
2 setlinecap
1 LJ
0.5 LW
N
98 352.597 M
100.915 352.597 L
S
GR
GS
0.149 GC
2 setlinecap
1 LJ
0.5 LW
N
98 350.154 M
100.915 350.154 L
S
GR
GS
0.149 GC
2 setlinecap
1 LJ
0.5 LW
N
98 348.037 M
100.915 348.037 L
S
GR
GS
0.149 GC
2 setlinecap
1 LJ
0.5 LW
N
98 346.17 M
100.915 346.17 L
S
GR
GS
0.149 GC
2 setlinecap
1 LJ
0.5 LW
N
98 344.5 M
100.915 344.5 L
S
GR
GS
0.149 GC
2 setlinecap
1 LJ
0.5 LW
N
98 333.512 M
100.915 333.512 L
S
GR
GS
0.149 GC
2 setlinecap
1 LJ
0.5 LW
N
98 327.085 M
100.915 327.085 L
S
GR
GS
0.149 GC
2 setlinecap
1 LJ
0.5 LW
N
98 322.525 M
100.915 322.525 L
S
GR
GS
0.149 GC
2 setlinecap
1 LJ
0.5 LW
N
98 318.988 M
100.915 318.988 L
S
GR
GS
0.149 GC
2 setlinecap
1 LJ
0.5 LW
N
98 316.097 M
100.915 316.097 L
S
GR
GS
0.149 GC
2 setlinecap
1 LJ
0.5 LW
N
98 313.654 M
100.915 313.654 L
S
GR
GS
0.149 GC
2 setlinecap
1 LJ
0.5 LW
N
98 311.537 M
100.915 311.537 L
S
GR
GS
0.149 GC
2 setlinecap
1 LJ
0.5 LW
N
98 309.67 M
100.915 309.67 L
S
GR
GS
0.149 GC
2 setlinecap
1 LJ
0.5 LW
N
98 308 M
100.915 308 L
S
GR
GS
0.149 GC
2 setlinecap
1 LJ
0.5 LW
N
98 297.012 M
100.915 297.012 L
S
GR
GS
0.149 GC
2 setlinecap
1 LJ
0.5 LW
N
98 290.585 M
100.915 290.585 L
S
GR
GS
0.149 GC
2 setlinecap
1 LJ
0.5 LW
N
98 286.025 M
100.915 286.025 L
S
GR
GS
0.149 GC
2 setlinecap
1 LJ
0.5 LW
N
98 282.488 M
100.915 282.488 L
S
GR
GS
0.149 GC
2 setlinecap
1 LJ
0.5 LW
N
98 279.597 M
100.915 279.597 L
S
GR
GS
0.149 GC
2 setlinecap
1 LJ
0.5 LW
N
98 277.154 M
100.915 277.154 L
S
GR
GS
0.149 GC
2 setlinecap
1 LJ
0.5 LW
N
98 275.037 M
100.915 275.037 L
S
GR
GS
0.149 GC
2 setlinecap
1 LJ
0.5 LW
N
98 273.17 M
100.915 273.17 L
S
GR
GS
0.149 GC
2 setlinecap
1 LJ
0.5 LW
N
98 271.5 M
100.915 271.5 L
S
GR
GS
0.149 GC
2 setlinecap
1 LJ
0.5 LW
N
98 260.512 M
100.915 260.512 L
S
GR
GS
0.149 GC
2 setlinecap
1 LJ
0.5 LW
N
98 254.085 M
100.915 254.085 L
S
GR
GS
0.149 GC
2 setlinecap
1 LJ
0.5 LW
N
98 249.525 M
100.915 249.525 L
S
GR
GS
0.149 GC
2 setlinecap
1 LJ
0.5 LW
N
98 245.988 M
100.915 245.988 L
S
GR
GS
0.149 GC
2 setlinecap
1 LJ
0.5 LW
N
98 243.097 M
100.915 243.097 L
S
GR
GS
0.149 GC
2 setlinecap
1 LJ
0.5 LW
N
98 240.654 M
100.915 240.654 L
S
GR
GS
0.149 GC
2 setlinecap
1 LJ
0.5 LW
N
98 238.537 M
100.915 238.537 L
S
GR
GS
0.149 GC
2 setlinecap
1 LJ
0.5 LW
N
98 236.67 M
100.915 236.67 L
S
GR
GS
0.149 GC
2 setlinecap
1 LJ
0.5 LW
N
98 235 M
100.915 235 L
S
GR
GS
0.149 GC
2 setlinecap
1 LJ
0.5 LW
N
681 381 M
678.085 381 L
S
GR
GS
0.149 GC
2 setlinecap
1 LJ
0.5 LW
N
681 370.012 M
678.085 370.012 L
S
GR
GS
0.149 GC
2 setlinecap
1 LJ
0.5 LW
N
681 363.585 M
678.085 363.585 L
S
GR
GS
0.149 GC
2 setlinecap
1 LJ
0.5 LW
N
681 359.025 M
678.085 359.025 L
S
GR
GS
0.149 GC
2 setlinecap
1 LJ
0.5 LW
N
681 355.488 M
678.085 355.488 L
S
GR
GS
0.149 GC
2 setlinecap
1 LJ
0.5 LW
N
681 352.597 M
678.085 352.597 L
S
GR
GS
0.149 GC
2 setlinecap
1 LJ
0.5 LW
N
681 350.154 M
678.085 350.154 L
S
GR
GS
0.149 GC
2 setlinecap
1 LJ
0.5 LW
N
681 348.037 M
678.085 348.037 L
S
GR
GS
0.149 GC
2 setlinecap
1 LJ
0.5 LW
N
681 346.17 M
678.085 346.17 L
S
GR
GS
0.149 GC
2 setlinecap
1 LJ
0.5 LW
N
681 344.5 M
678.085 344.5 L
S
GR
GS
0.149 GC
2 setlinecap
1 LJ
0.5 LW
N
681 333.512 M
678.085 333.512 L
S
GR
GS
0.149 GC
2 setlinecap
1 LJ
0.5 LW
N
681 327.085 M
678.085 327.085 L
S
GR
GS
0.149 GC
2 setlinecap
1 LJ
0.5 LW
N
681 322.525 M
678.085 322.525 L
S
GR
GS
0.149 GC
2 setlinecap
1 LJ
0.5 LW
N
681 318.988 M
678.085 318.988 L
S
GR
GS
0.149 GC
2 setlinecap
1 LJ
0.5 LW
N
681 316.097 M
678.085 316.097 L
S
GR
GS
0.149 GC
2 setlinecap
1 LJ
0.5 LW
N
681 313.654 M
678.085 313.654 L
S
GR
GS
0.149 GC
2 setlinecap
1 LJ
0.5 LW
N
681 311.537 M
678.085 311.537 L
S
GR
GS
0.149 GC
2 setlinecap
1 LJ
0.5 LW
N
681 309.67 M
678.085 309.67 L
S
GR
GS
0.149 GC
2 setlinecap
1 LJ
0.5 LW
N
681 308 M
678.085 308 L
S
GR
GS
0.149 GC
2 setlinecap
1 LJ
0.5 LW
N
681 297.012 M
678.085 297.012 L
S
GR
GS
0.149 GC
2 setlinecap
1 LJ
0.5 LW
N
681 290.585 M
678.085 290.585 L
S
GR
GS
0.149 GC
2 setlinecap
1 LJ
0.5 LW
N
681 286.025 M
678.085 286.025 L
S
GR
GS
0.149 GC
2 setlinecap
1 LJ
0.5 LW
N
681 282.488 M
678.085 282.488 L
S
GR
GS
0.149 GC
2 setlinecap
1 LJ
0.5 LW
N
681 279.597 M
678.085 279.597 L
S
GR
GS
0.149 GC
2 setlinecap
1 LJ
0.5 LW
N
681 277.154 M
678.085 277.154 L
S
GR
GS
0.149 GC
2 setlinecap
1 LJ
0.5 LW
N
681 275.037 M
678.085 275.037 L
S
GR
GS
0.149 GC
2 setlinecap
1 LJ
0.5 LW
N
681 273.17 M
678.085 273.17 L
S
GR
GS
0.149 GC
2 setlinecap
1 LJ
0.5 LW
N
681 271.5 M
678.085 271.5 L
S
GR
GS
0.149 GC
2 setlinecap
1 LJ
0.5 LW
N
681 260.512 M
678.085 260.512 L
S
GR
GS
0.149 GC
2 setlinecap
1 LJ
0.5 LW
N
681 254.085 M
678.085 254.085 L
S
GR
GS
0.149 GC
2 setlinecap
1 LJ
0.5 LW
N
681 249.525 M
678.085 249.525 L
S
GR
GS
0.149 GC
2 setlinecap
1 LJ
0.5 LW
N
681 245.988 M
678.085 245.988 L
S
GR
GS
0.149 GC
2 setlinecap
1 LJ
0.5 LW
N
681 243.097 M
678.085 243.097 L
S
GR
GS
0.149 GC
2 setlinecap
1 LJ
0.5 LW
N
681 240.654 M
678.085 240.654 L
S
GR
GS
0.149 GC
2 setlinecap
1 LJ
0.5 LW
N
681 238.537 M
678.085 238.537 L
S
GR
GS
0.149 GC
2 setlinecap
1 LJ
0.5 LW
N
681 236.67 M
678.085 236.67 L
S
GR
GS
0.149 GC
2 setlinecap
1 LJ
0.5 LW
N
681 235 M
678.085 235 L
S
GR
GS
[1 0 0 1 74 386] CT
0.149 GC
/Helvetica 10 F
GS
[1 0 0 1 0 0] CT
0 0 moveto 
1 -1 scale
(10) t 
GR
GR
GS
[1 0 0 1 86 381] CT
0.149 GC
/Helvetica 8 F
GS
[1 0 0 1 0 0] CT
0 0 moveto 
1 -1 scale
(-2) t 
GR
GR
GS
[1 0 0 1 74 350] CT
0.149 GC
/Helvetica 10 F
GS
[1 0 0 1 0 0] CT
0 0 moveto 
1 -1 scale
(10) t 
GR
GR
GS
[1 0 0 1 86 345] CT
0.149 GC
/Helvetica 8 F
GS
[1 0 0 1 0 0] CT
0 0 moveto 
1 -1 scale
(-1) t 
GR
GR
GS
[1 0 0 1 77 313] CT
0.149 GC
/Helvetica 10 F
GS
[1 0 0 1 0 0] CT
0 0 moveto 
1 -1 scale
(10) t 
GR
GR
GS
[1 0 0 1 89 308] CT
0.149 GC
/Helvetica 8 F
GS
[1 0 0 1 0 0] CT
0 0 moveto 
1 -1 scale
(0) t 
GR
GR
GS
[1 0 0 1 77 277] CT
0.149 GC
/Helvetica 10 F
GS
[1 0 0 1 0 0] CT
0 0 moveto 
1 -1 scale
(10) t 
GR
GR
GS
[1 0 0 1 89 272] CT
0.149 GC
/Helvetica 8 F
GS
[1 0 0 1 0 0] CT
0 0 moveto 
1 -1 scale
(1) t 
GR
GR
GS
[1 0 0 1 77 240] CT
0.149 GC
/Helvetica 10 F
GS
[1 0 0 1 0 0] CT
0 0 moveto 
1 -1 scale
(10) t 
GR
GR
GS
[1 0 0 1 89 235] CT
0.149 GC
/Helvetica 8 F
GS
[1 0 0 1 0 0] CT
0 0 moveto 
1 -1 scale
(2) t 
GR
GR
GS
[0 -1 1 0 64 357] CT
0.149 GC
/Helvetica 11 F
GS
[1 0 0 1 0 0] CT
0 0 moveto 
1 -1 scale
(|Z) t 
GR
GR
GS
[0 -1 1 0 69 347] CT
0.149 GC
/Helvetica 8.8 F
GS
[1 0 0 1 0 0] CT
0 0 moveto 
1 -1 scale
(IN) t 
GR
GR
GS
[0 -1 1 0 64 338] CT
0.149 GC
/Helvetica 11 F
GS
[1 0 0 1 0 0] CT
0 0 moveto 
1 -1 scale
(|) t 
GR
GR
GS
[0 -1 1 0 59 335] CT
0.149 GC
/Helvetica 8.8 F
GS
[1 0 0 1 0 0] CT
0 0 moveto 
1 -1 scale
(2) t 
GR
GR
GS
[0 -1 1 0 64 329] CT
0.149 GC
/Helvetica 11 F
GS
[1 0 0 1 0 0] CT
0 0 moveto 
1 -1 scale
(/Z) t 
GR
GR
GS
[0 -1 1 0 69 318] CT
0.149 GC
/Helvetica 8.8 F
GS
[1 0 0 1 0 0] CT
0 0 moveto 
1 -1 scale
(1) t 
GR
GR
GS
[0 -1 1 0 59 318] CT
0.149 GC
/Helvetica 8.8 F
GS
[1 0 0 1 0 0] CT
0 0 moveto 
1 -1 scale
(2) t 
GR
GR
GS
[0 -1 1 0 64 312] CT
0.149 GC
/Helvetica 11 F
GS
[1 0 0 1 0 0] CT
0 0 moveto 
1 -1 scale
( \(log scale\)) t 
GR
GR
GS
0 0.447 0.741 RC
1 LJ
0.5 LW
N
98 235 M
98.416 235.158 L
98.833 235.622 L
99.249 236.367 L
99.666 237.355 L
100.082 238.542 L
100.499 239.884 L
100.915 241.338 L
101.331 242.867 L
101.748 244.442 L
102.164 246.039 L
102.581 247.639 L
102.997 249.228 L
103.414 250.796 L
103.83 252.337 L
104.246 253.846 L
104.663 255.32 L
105.079 256.758 L
105.496 258.158 L
105.912 259.521 L
106.329 260.848 L
106.745 262.139 L
107.161 263.396 L
107.578 264.619 L
107.994 265.811 L
108.411 266.972 L
108.827 268.103 L
109.244 269.206 L
109.66 270.283 L
110.076 271.335 L
110.493 272.362 L
110.909 273.366 L
111.326 274.349 L
111.742 275.311 L
112.159 276.253 L
112.575 277.176 L
112.991 278.081 L
113.408 278.97 L
113.824 279.842 L
114.241 280.699 L
114.657 281.542 L
115.074 282.371 L
115.49 283.186 L
115.906 283.989 L
116.323 284.78 L
116.739 285.56 L
117.156 286.329 L
117.572 287.088 L
117.989 287.837 L
118.405 288.577 L
118.821 289.308 L
119.238 290.031 L
119.654 290.745 L
120.071 291.453 L
120.487 292.153 L
120.904 292.847 L
121.32 293.534 L
121.736 294.215 L
122.153 294.891 L
122.569 295.561 L
122.986 296.227 L
123.402 296.887 L
123.819 297.543 L
124.235 298.195 L
124.651 298.844 L
125.068 299.489 L
125.484 300.13 L
125.901 300.768 L
126.317 301.404 L
126.734 302.037 L
127.15 302.668 L
127.566 303.297 L
127.983 303.925 L
128.399 304.55 L
128.816 305.175 L
129.232 305.798 L
129.649 306.421 L
130.065 307.043 L
130.481 307.664 L
130.898 308.286 L
131.314 308.908 L
131.731 309.53 L
132.147 310.152 L
132.564 310.775 L
132.98 311.4 L
133.396 312.025 L
133.813 312.653 L
134.229 313.281 L
134.646 313.912 L
135.062 314.545 L
135.479 315.181 L
135.895 315.819 L
136.311 316.46 L
136.728 317.105 L
137.144 317.753 L
137.561 318.405 L
137.977 319.06 L
138.394 319.721 L
138.81 320.386 L
139.226 321.056 L
139.643 321.731 L
140.059 322.411 L
140.476 323.098 L
140.892 323.791 L
141.309 324.491 L
141.725 325.198 L
142.141 325.912 L
142.558 326.634 L
142.974 327.365 L
143.391 328.104 L
143.807 328.852 L
144.224 329.61 L
144.64 330.378 L
145.056 331.157 L
145.473 331.947 L
145.889 332.749 L
146.306 333.564 L
146.722 334.392 L
147.139 335.233 L
147.555 336.089 L
147.971 336.96 L
148.388 337.847 L
148.804 338.751 L
149.221 339.673 L
149.637 340.614 L
150.054 341.574 L
150.47 342.555 L
150.886 343.557 L
151.303 344.583 L
151.719 345.632 L
152.136 346.707 L
152.552 347.808 L
152.969 348.937 L
153.385 350.096 L
153.801 351.285 L
154.218 352.505 L
154.634 353.759 L
155.051 355.048 L
155.467 356.372 L
155.884 357.732 L
156.3 359.13 L
156.716 360.564 L
157.133 362.035 L
157.549 363.542 L
157.966 365.08 L
158.382 366.647 L
158.799 368.234 L
159.215 369.833 L
159.631 371.431 L
160.048 373.009 L
160.464 374.543 L
160.881 376.004 L
161.297 377.356 L
161.714 378.557 L
162.13 379.563 L
162.546 380.329 L
162.963 380.816 L
163.379 380.999 L
163.796 380.866 L
164.212 380.426 L
164.629 379.702 L
165.045 378.732 L
165.461 377.559 L
165.878 376.228 L
166.294 374.781 L
166.711 373.257 L
167.127 371.684 L
167.544 370.088 L
167.96 368.488 L
168.376 366.898 L
168.793 365.328 L
169.209 363.784 L
169.626 362.273 L
170.042 360.796 L
170.459 359.356 L
170.875 357.952 L
171.291 356.586 L
171.708 355.256 L
172.124 353.962 L
172.541 352.703 L
172.957 351.477 L
173.374 350.283 L
173.79 349.12 L
174.206 347.986 L
174.623 346.881 L
175.039 345.802 L
175.456 344.748 L
175.872 343.719 L
176.289 342.713 L
176.705 341.729 L
177.121 340.765 L
177.538 339.822 L
177.954 338.897 L
178.371 337.99 L
178.787 337.1 L
179.204 336.227 L
179.62 335.368 L
180.036 334.525 L
180.453 333.695 L
180.869 332.878 L
181.286 332.074 L
181.702 331.282 L
182.119 330.502 L
182.535 329.732 L
182.951 328.972 L
183.368 328.222 L
183.784 327.482 L
184.201 326.75 L
184.617 326.027 L
185.034 325.311 L
185.45 324.603 L
185.866 323.902 L
186.283 323.208 L
186.699 322.52 L
187.116 321.839 L
187.532 321.163 L
187.949 320.492 L
188.365 319.826 L
188.781 319.165 L
189.198 318.509 L
189.614 317.856 L
190.031 317.208 L
190.447 316.563 L
190.864 315.921 L
191.28 315.282 L
191.696 314.646 L
192.113 314.013 L
192.529 313.382 L
192.946 312.753 L
193.362 312.125 L
193.779 311.499 L
194.195 310.875 L
194.611 310.251 L
195.028 309.629 L
195.444 309.007 L
195.861 308.385 L
196.277 307.763 L
196.694 307.142 L
197.11 306.52 L
197.526 305.897 L
197.943 305.274 L
198.359 304.65 L
198.776 304.024 L
199.192 303.397 L
199.609 302.769 L
200.025 302.138 L
200.441 301.505 L
200.858 300.87 L
201.274 300.232 L
201.691 299.591 L
202.107 298.947 L
202.524 298.299 L
202.94 297.647 L
203.356 296.992 L
203.773 296.332 L
204.189 295.668 L
204.606 294.998 L
205.022 294.323 L
205.439 293.643 L
205.855 292.957 L
206.271 292.264 L
206.688 291.565 L
207.104 290.859 L
207.521 290.145 L
207.937 289.423 L
208.354 288.694 L
208.77 287.955 L
209.186 287.208 L
209.603 286.451 L
210.019 285.683 L
210.436 284.905 L
210.852 284.116 L
211.269 283.315 L
211.685 282.501 L
212.101 281.675 L
212.518 280.835 L
212.934 279.98 L
213.351 279.11 L
213.767 278.224 L
214.184 277.321 L
214.6 276.401 L
215.016 275.462 L
215.433 274.503 L
215.849 273.524 L
216.266 272.523 L
216.682 271.5 L
217.099 270.452 L
217.515 269.38 L
217.931 268.28 L
218.348 267.154 L
218.764 265.998 L
219.181 264.811 L
219.597 263.593 L
220.014 262.342 L
220.43 261.056 L
220.846 259.735 L
221.263 258.378 L
221.679 256.983 L
222.096 255.551 L
222.512 254.083 L
222.929 252.58 L
223.345 251.044 L
223.761 249.479 L
224.178 247.893 L
224.594 246.294 L
225.011 244.696 L
225.427 243.116 L
225.844 241.577 L
226.26 240.109 L
226.676 238.747 L
227.093 237.532 L
227.509 236.509 L
227.926 235.723 L
228.342 235.212 L
228.759 235.004 L
229.175 235.112 L
229.591 235.528 L
230.008 236.231 L
230.424 237.183 L
230.841 238.342 L
231.257 239.661 L
231.674 241.1 L
232.09 242.62 L
232.506 244.19 L
232.923 245.784 L
233.339 247.384 L
233.756 248.976 L
234.172 250.548 L
234.589 252.094 L
235.005 253.608 L
235.421 255.088 L
235.838 256.531 L
236.254 257.937 L
236.671 259.307 L
237.087 260.639 L
237.504 261.936 L
237.92 263.198 L
238.336 264.427 L
238.753 265.623 L
239.169 266.789 L
239.586 267.925 L
240.002 269.032 L
240.419 270.113 L
240.835 271.169 L
241.251 272.2 L
241.668 273.208 L
242.084 274.194 L
242.501 275.159 L
242.917 276.104 L
243.334 277.03 L
243.75 277.938 L
244.166 278.829 L
244.583 279.704 L
244.999 280.564 L
245.416 281.409 L
245.832 282.24 L
246.249 283.057 L
246.665 283.862 L
247.081 284.655 L
247.498 285.437 L
247.914 286.207 L
248.331 286.968 L
248.747 287.718 L
249.164 288.46 L
249.58 289.192 L
249.996 289.916 L
250.413 290.632 L
250.829 291.341 L
251.246 292.042 L
251.662 292.737 L
252.079 293.425 L
252.495 294.107 L
252.911 294.784 L
253.328 295.455 L
253.744 296.121 L
254.161 296.782 L
254.577 297.439 L
254.994 298.092 L
255.41 298.741 L
255.826 299.386 L
256.243 300.028 L
256.659 300.667 L
257.076 301.303 L
257.492 301.937 L
257.909 302.568 L
258.325 303.197 L
258.741 303.825 L
259.158 304.451 L
259.574 305.076 L
259.991 305.699 L
260.407 306.322 L
260.824 306.944 L
261.24 307.565 L
261.656 308.187 L
262.073 308.809 L
262.489 309.431 L
262.906 310.053 L
263.322 310.676 L
263.739 311.3 L
264.155 311.926 L
264.571 312.553 L
264.988 313.181 L
265.404 313.812 L
265.821 314.444 L
266.237 315.079 L
266.654 315.717 L
267.07 316.358 L
267.486 317.002 L
267.903 317.649 L
268.319 318.301 L
268.736 318.956 L
269.152 319.615 L
269.569 320.279 L
269.985 320.948 L
270.401 321.623 L
270.818 322.303 L
271.234 322.988 L
271.651 323.681 L
272.067 324.379 L
272.484 325.085 L
272.9 325.798 L
273.316 326.519 L
273.733 327.248 L
274.149 327.986 L
274.566 328.732 L
274.982 329.489 L
275.399 330.255 L
275.815 331.033 L
276.231 331.821 L
276.648 332.621 L
277.064 333.433 L
277.481 334.259 L
277.897 335.098 L
278.314 335.952 L
278.73 336.82 L
279.146 337.705 L
279.563 338.606 L
279.979 339.525 L
280.396 340.463 L
280.812 341.42 L
281.229 342.397 L
281.645 343.396 L
282.061 344.418 L
282.478 345.463 L
282.894 346.534 L
283.311 347.631 L
283.727 348.756 L
284.144 349.909 L
284.56 351.093 L
284.976 352.309 L
285.393 353.557 L
285.809 354.84 L
286.226 356.158 L
286.642 357.513 L
287.059 358.905 L
287.475 360.333 L
287.891 361.799 L
288.308 363.299 L
288.724 364.833 L
289.141 366.395 L
289.557 367.98 L
289.974 369.578 L
290.39 371.177 L
290.806 372.76 L
291.223 374.303 L
291.639 375.778 L
292.056 377.15 L
292.472 378.378 L
292.889 379.418 L
293.305 380.225 L
293.721 380.759 L
294.138 380.991 L
294.554 380.908 L
294.971 380.516 L
295.387 379.835 L
295.804 378.901 L
296.22 377.757 L
296.636 376.449 L
297.053 375.018 L
297.469 373.503 L
297.886 371.937 L
298.302 370.343 L
298.719 368.743 L
299.135 367.15 L
299.551 365.576 L
299.968 364.028 L
300.384 362.511 L
300.801 361.029 L
301.217 359.583 L
301.634 358.173 L
302.05 356.801 L
302.466 355.466 L
302.883 354.166 L
303.299 352.901 L
303.716 351.67 L
304.132 350.471 L
304.549 349.303 L
304.965 348.165 L
305.381 347.055 L
305.798 345.972 L
306.214 344.914 L
306.631 343.881 L
307.047 342.872 L
307.464 341.884 L
307.88 340.917 L
308.296 339.971 L
308.713 339.043 L
309.129 338.133 L
309.546 337.241 L
309.962 336.365 L
310.379 335.504 L
310.795 334.658 L
311.211 333.826 L
311.628 333.008 L
312.044 332.202 L
312.461 331.408 L
312.877 330.625 L
313.294 329.854 L
313.71 329.093 L
314.126 328.341 L
314.543 327.599 L
314.959 326.866 L
315.376 326.141 L
315.792 325.425 L
316.209 324.715 L
316.625 324.014 L
317.041 323.318 L
317.458 322.63 L
317.874 321.947 L
318.291 321.27 L
318.707 320.598 L
319.124 319.932 L
319.54 319.27 L
319.956 318.613 L
320.373 317.96 L
320.789 317.311 L
321.206 316.665 L
321.622 316.023 L
322.039 315.384 L
322.455 314.747 L
322.871 314.114 L
323.288 313.482 L
323.704 312.853 L
324.121 312.225 L
324.537 311.599 L
324.954 310.974 L
325.37 310.351 L
325.786 309.728 L
326.203 309.106 L
326.619 308.484 L
327.036 307.862 L
327.452 307.241 L
327.869 306.619 L
328.285 305.997 L
328.701 305.374 L
329.118 304.749 L
329.534 304.124 L
329.951 303.497 L
330.367 302.869 L
330.784 302.239 L
331.2 301.606 L
331.616 300.971 L
332.033 300.334 L
332.449 299.693 L
332.866 299.049 L
333.282 298.402 L
333.699 297.751 L
334.115 297.097 L
334.531 296.437 L
334.948 295.774 L
335.364 295.105 L
335.781 294.431 L
336.197 293.752 L
336.614 293.066 L
337.03 292.375 L
337.446 291.677 L
337.863 290.972 L
338.279 290.259 L
338.696 289.539 L
339.112 288.811 L
339.529 288.074 L
339.945 287.327 L
340.361 286.572 L
340.778 285.806 L
341.194 285.03 L
341.611 284.242 L
342.027 283.443 L
342.444 282.632 L
342.86 281.807 L
343.276 280.969 L
343.693 280.117 L
344.109 279.249 L
344.526 278.366 L
344.942 277.466 L
345.359 276.549 L
345.775 275.613 L
346.191 274.657 L
346.608 273.682 L
347.024 272.684 L
347.441 271.664 L
347.857 270.621 L
348.274 269.552 L
348.69 268.457 L
349.106 267.335 L
349.523 266.184 L
349.939 265.002 L
350.356 263.789 L
350.772 262.543 L
351.189 261.263 L
351.605 259.948 L
352.021 258.596 L
352.438 257.208 L
352.854 255.782 L
353.271 254.319 L
353.687 252.821 L
354.104 251.29 L
354.52 249.73 L
354.936 248.147 L
355.353 246.549 L
355.769 244.95 L
356.186 243.365 L
356.602 241.818 L
357.019 240.336 L
357.435 238.955 L
357.851 237.714 L
358.268 236.657 L
358.684 235.83 L
359.101 235.273 L
359.517 235.016 L
359.934 235.073 L
360.35 235.442 L
360.766 236.101 L
361.183 237.016 L
361.599 238.145 L
362.016 239.442 L
362.432 240.865 L
362.849 242.374 L
363.265 243.937 L
363.681 245.529 L
364.098 247.13 L
364.514 248.723 L
364.931 250.299 L
365.347 251.85 L
365.764 253.369 L
366.18 254.854 L
366.596 256.304 L
367.013 257.716 L
367.429 259.091 L
367.846 260.429 L
368.262 261.732 L
368.679 262.999 L
369.095 264.233 L
369.511 265.435 L
369.928 266.605 L
370.344 267.746 L
370.761 268.858 L
371.177 269.943 L
371.594 271.002 L
372.01 272.037 L
372.426 273.049 L
372.843 274.038 L
373.259 275.006 L
373.676 275.955 L
374.092 276.884 L
374.509 277.795 L
374.925 278.689 L
375.341 279.566 L
375.758 280.428 L
376.174 281.275 L
376.591 282.108 L
377.007 282.928 L
377.424 283.735 L
377.84 284.529 L
378.256 285.313 L
378.673 286.085 L
379.089 286.847 L
379.506 287.599 L
379.922 288.342 L
380.339 289.076 L
380.755 289.801 L
381.171 290.519 L
381.588 291.228 L
382.004 291.931 L
382.421 292.627 L
382.837 293.316 L
383.254 293.999 L
383.67 294.676 L
384.086 295.348 L
384.503 296.015 L
384.919 296.677 L
385.336 297.335 L
385.752 297.988 L
386.169 298.638 L
386.585 299.284 L
387.001 299.926 L
387.418 300.565 L
387.834 301.202 L
388.251 301.836 L
388.667 302.468 L
389.084 303.097 L
389.5 303.725 L
389.916 304.351 L
390.333 304.976 L
390.749 305.6 L
391.166 306.223 L
391.582 306.845 L
391.999 307.466 L
392.415 308.088 L
392.831 308.71 L
393.248 309.331 L
393.664 309.954 L
394.081 310.577 L
394.497 311.201 L
394.914 311.826 L
395.33 312.453 L
395.746 313.081 L
396.163 313.711 L
396.579 314.343 L
396.996 314.978 L
397.412 315.615 L
397.829 316.256 L
398.245 316.899 L
398.661 317.546 L
399.078 318.197 L
399.494 318.851 L
399.911 319.51 L
400.327 320.173 L
400.744 320.842 L
401.16 321.515 L
401.576 322.194 L
401.993 322.879 L
402.409 323.57 L
402.826 324.267 L
403.242 324.972 L
403.659 325.684 L
404.075 326.403 L
404.491 327.131 L
404.908 327.867 L
405.324 328.613 L
405.741 329.368 L
406.157 330.133 L
406.574 330.908 L
406.99 331.695 L
407.406 332.493 L
407.823 333.303 L
408.239 334.127 L
408.656 334.963 L
409.072 335.815 L
409.489 336.681 L
409.905 337.563 L
410.321 338.462 L
410.738 339.378 L
411.154 340.312 L
411.571 341.266 L
411.987 342.24 L
412.404 343.236 L
412.82 344.254 L
413.236 345.295 L
413.653 346.362 L
414.069 347.454 L
414.486 348.575 L
414.902 349.723 L
415.319 350.902 L
415.735 352.113 L
416.151 353.356 L
416.568 354.633 L
416.984 355.946 L
417.401 357.295 L
417.817 358.68 L
418.234 360.103 L
418.65 361.563 L
419.066 363.058 L
419.483 364.587 L
419.899 366.145 L
420.316 367.727 L
420.732 369.324 L
421.149 370.923 L
421.565 372.51 L
421.981 374.061 L
422.398 375.549 L
422.814 376.94 L
423.231 378.194 L
423.647 379.267 L
424.064 380.113 L
424.48 380.693 L
424.896 380.975 L
425.313 380.943 L
425.729 380.598 L
426.146 379.961 L
426.562 379.065 L
426.979 377.952 L
427.395 376.666 L
427.811 375.252 L
428.228 373.749 L
428.644 372.189 L
429.061 370.598 L
429.477 368.998 L
429.894 367.403 L
430.31 365.825 L
430.726 364.273 L
431.143 362.751 L
431.559 361.263 L
431.976 359.81 L
432.392 358.395 L
432.809 357.017 L
433.225 355.676 L
433.641 354.371 L
434.058 353.1 L
434.474 351.864 L
434.891 350.66 L
435.307 349.487 L
435.724 348.344 L
436.14 347.23 L
436.556 346.142 L
436.973 345.081 L
437.389 344.044 L
437.806 343.031 L
438.222 342.04 L
438.639 341.07 L
439.055 340.12 L
439.471 339.19 L
439.888 338.277 L
440.304 337.382 L
440.721 336.503 L
441.137 335.64 L
441.554 334.792 L
441.97 333.958 L
442.386 333.137 L
442.803 332.329 L
443.219 331.533 L
443.636 330.749 L
444.052 329.976 L
444.469 329.213 L
444.885 328.46 L
445.301 327.717 L
445.718 326.982 L
446.134 326.256 L
446.551 325.538 L
446.967 324.828 L
447.384 324.125 L
447.8 323.429 L
448.216 322.739 L
448.633 322.055 L
449.049 321.377 L
449.466 320.705 L
449.882 320.038 L
450.299 319.375 L
450.715 318.717 L
451.131 318.064 L
451.548 317.414 L
451.964 316.768 L
452.381 316.125 L
452.797 315.485 L
453.214 314.849 L
453.63 314.214 L
454.046 313.583 L
454.463 312.953 L
454.879 312.325 L
455.296 311.699 L
455.712 311.074 L
456.129 310.45 L
456.545 309.827 L
456.961 309.205 L
457.378 308.583 L
457.794 307.961 L
458.211 307.34 L
458.627 306.718 L
459.044 306.096 L
459.46 305.473 L
459.876 304.849 L
460.293 304.224 L
460.709 303.597 L
461.126 302.969 L
461.542 302.339 L
461.959 301.707 L
462.375 301.073 L
462.791 300.435 L
463.208 299.795 L
463.624 299.152 L
464.041 298.506 L
464.457 297.855 L
464.874 297.201 L
465.29 296.543 L
465.706 295.88 L
466.123 295.212 L
466.539 294.539 L
466.956 293.86 L
467.372 293.176 L
467.789 292.485 L
468.205 291.788 L
468.621 291.084 L
469.038 290.373 L
469.454 289.654 L
469.871 288.927 L
470.287 288.191 L
470.704 287.447 L
471.12 286.693 L
471.536 285.929 L
471.953 285.154 L
472.369 284.369 L
472.786 283.571 L
473.202 282.762 L
473.619 281.94 L
474.035 281.104 L
474.451 280.254 L
474.868 279.389 L
475.284 278.508 L
475.701 277.611 L
476.117 276.696 L
476.534 275.763 L
476.95 274.811 L
477.366 273.838 L
477.783 272.845 L
478.199 271.828 L
478.616 270.789 L
479.032 269.724 L
479.449 268.634 L
479.865 267.516 L
480.281 266.369 L
480.698 265.193 L
481.114 263.985 L
481.531 262.744 L
481.947 261.47 L
482.364 260.16 L
482.78 258.814 L
483.196 257.431 L
483.613 256.011 L
484.029 254.555 L
484.446 253.062 L
484.862 251.536 L
485.279 249.98 L
485.695 248.4 L
486.111 246.804 L
486.528 245.204 L
486.944 243.616 L
487.361 242.061 L
487.777 240.567 L
488.194 239.167 L
488.61 237.9 L
489.026 236.811 L
489.443 235.945 L
489.859 235.342 L
490.276 235.036 L
490.692 235.043 L
491.109 235.363 L
491.525 235.978 L
491.941 236.855 L
492.358 237.953 L
492.774 239.226 L
493.191 240.631 L
493.607 242.129 L
494.024 243.686 L
494.44 245.275 L
494.856 246.875 L
495.273 248.471 L
495.689 250.05 L
496.106 251.605 L
496.522 253.129 L
496.939 254.62 L
497.355 256.075 L
497.771 257.493 L
498.188 258.874 L
498.604 260.219 L
499.021 261.527 L
499.437 262.8 L
499.854 264.039 L
500.27 265.245 L
500.686 266.421 L
501.103 267.566 L
501.519 268.683 L
501.936 269.772 L
502.352 270.835 L
502.769 271.874 L
503.185 272.889 L
503.601 273.882 L
504.018 274.854 L
504.434 275.805 L
504.851 276.737 L
505.267 277.651 L
505.684 278.547 L
506.1 279.427 L
506.516 280.292 L
506.933 281.141 L
507.349 281.976 L
507.766 282.798 L
508.182 283.607 L
508.599 284.404 L
509.015 285.189 L
509.431 285.963 L
509.848 286.727 L
510.264 287.48 L
510.681 288.224 L
511.097 288.96 L
511.514 289.686 L
511.93 290.405 L
512.346 291.116 L
512.763 291.819 L
513.179 292.516 L
513.596 293.206 L
514.012 293.891 L
514.429 294.569 L
514.845 295.242 L
515.261 295.909 L
515.678 296.572 L
516.094 297.23 L
516.511 297.884 L
516.927 298.534 L
517.344 299.181 L
517.76 299.824 L
518.176 300.464 L
518.593 301.101 L
519.009 301.735 L
519.426 302.367 L
519.842 302.997 L
520.259 303.625 L
520.675 304.252 L
521.091 304.877 L
521.508 305.501 L
521.924 306.123 L
522.341 306.746 L
522.757 307.367 L
523.174 307.989 L
523.59 308.611 L
524.006 309.232 L
524.423 309.855 L
524.839 310.478 L
525.256 311.101 L
525.672 311.726 L
526.089 312.353 L
526.505 312.981 L
526.921 313.611 L
527.338 314.242 L
527.754 314.877 L
528.171 315.514 L
528.587 316.154 L
529.004 316.796 L
529.42 317.443 L
529.836 318.093 L
530.253 318.747 L
530.669 319.405 L
531.086 320.067 L
531.502 320.735 L
531.919 321.407 L
532.335 322.085 L
532.751 322.769 L
533.168 323.459 L
533.584 324.156 L
534.001 324.859 L
534.417 325.57 L
534.834 326.288 L
535.25 327.015 L
535.666 327.75 L
536.083 328.493 L
536.499 329.247 L
536.916 330.01 L
537.332 330.784 L
537.749 331.568 L
538.165 332.365 L
538.581 333.173 L
538.998 333.995 L
539.414 334.829 L
539.831 335.678 L
540.247 336.542 L
540.664 337.421 L
541.08 338.317 L
541.496 339.23 L
541.913 340.162 L
542.329 341.113 L
542.746 342.083 L
543.162 343.075 L
543.579 344.09 L
543.995 345.128 L
544.411 346.19 L
544.828 347.279 L
545.244 348.394 L
545.661 349.538 L
546.077 350.713 L
546.494 351.918 L
546.91 353.156 L
547.326 354.428 L
547.743 355.735 L
548.159 357.078 L
548.576 358.457 L
548.992 359.874 L
549.409 361.328 L
549.825 362.818 L
550.241 364.341 L
550.658 365.895 L
551.074 367.474 L
551.491 369.069 L
551.907 370.669 L
552.324 372.259 L
552.74 373.817 L
553.156 375.317 L
553.573 376.726 L
553.989 378.005 L
554.406 379.11 L
554.822 379.995 L
555.239 380.62 L
555.655 380.951 L
556.071 380.969 L
556.488 380.673 L
556.904 380.081 L
557.321 379.223 L
557.737 378.142 L
558.154 376.881 L
558.57 375.484 L
558.986 373.993 L
559.403 372.44 L
559.819 370.852 L
560.236 369.252 L
560.652 367.656 L
561.069 366.075 L
561.485 364.518 L
561.901 362.991 L
562.318 361.497 L
562.734 360.039 L
563.151 358.618 L
563.567 357.234 L
563.984 355.887 L
564.4 354.576 L
564.816 353.3 L
565.233 352.058 L
565.649 350.849 L
566.066 349.672 L
566.482 348.524 L
566.899 347.405 L
567.315 346.314 L
567.731 345.248 L
568.148 344.208 L
568.564 343.191 L
568.981 342.196 L
569.397 341.223 L
569.814 340.27 L
570.23 339.337 L
570.646 338.421 L
571.063 337.523 L
571.479 336.642 L
571.896 335.777 L
572.312 334.926 L
572.729 334.09 L
573.145 333.267 L
573.561 332.457 L
573.978 331.659 L
574.394 330.873 L
574.811 330.098 L
575.227 329.334 L
575.644 328.579 L
576.06 327.835 L
576.476 327.099 L
576.893 326.371 L
577.309 325.652 L
577.726 324.941 L
578.142 324.236 L
578.559 323.539 L
578.975 322.848 L
579.391 322.164 L
579.808 321.485 L
580.224 320.812 L
580.641 320.144 L
581.057 319.481 L
581.474 318.822 L
581.89 318.168 L
582.306 317.517 L
582.723 316.87 L
583.139 316.227 L
583.556 315.587 L
583.972 314.95 L
584.389 314.315 L
584.805 313.683 L
585.221 313.053 L
585.638 312.425 L
586.054 311.798 L
586.471 311.173 L
586.887 310.549 L
587.304 309.926 L
587.72 309.304 L
588.136 308.682 L
588.553 308.06 L
588.969 307.439 L
589.386 306.817 L
589.802 306.195 L
590.219 305.572 L
590.635 304.948 L
591.051 304.323 L
591.468 303.697 L
591.884 303.069 L
592.301 302.44 L
592.717 301.808 L
593.134 301.174 L
593.55 300.537 L
593.966 299.898 L
594.383 299.255 L
594.799 298.609 L
595.216 297.959 L
595.632 297.306 L
596.049 296.648 L
596.465 295.986 L
596.881 295.319 L
597.298 294.646 L
597.714 293.969 L
598.131 293.285 L
598.547 292.596 L
598.964 291.9 L
599.38 291.197 L
599.796 290.487 L
600.213 289.769 L
600.629 289.043 L
601.046 288.309 L
601.462 287.566 L
601.879 286.814 L
602.295 286.051 L
602.711 285.278 L
603.128 284.494 L
603.544 283.699 L
603.961 282.892 L
604.377 282.071 L
604.794 281.238 L
605.21 280.39 L
605.626 279.527 L
606.043 278.649 L
606.459 277.755 L
606.876 276.843 L
607.292 275.913 L
607.709 274.964 L
608.125 273.995 L
608.541 273.004 L
608.958 271.992 L
609.374 270.956 L
609.791 269.895 L
610.207 268.809 L
610.624 267.696 L
611.04 266.554 L
611.456 265.382 L
611.873 264.179 L
612.289 262.944 L
612.706 261.675 L
613.122 260.371 L
613.539 259.031 L
613.955 257.654 L
614.371 256.24 L
614.788 254.789 L
615.204 253.302 L
615.621 251.781 L
616.037 250.23 L
616.454 248.653 L
616.87 247.059 L
617.286 245.458 L
617.703 243.867 L
618.119 242.305 L
618.536 240.799 L
618.952 239.382 L
619.369 238.091 L
619.785 236.971 L
620.201 236.066 L
620.618 235.419 L
621.034 235.064 L
S
GR
%%Trailer
%%Pages: 1
%%EOF
